sim/mux/dump_mux_25percent_4-1_8BW.vcd
$date
    Jul  6, 2022  18:47:48
$end
$version
    TOOL:	xmsim	19.03-s013
$end
$timescale
    1 ps
$end

$scope module mux_test $end

$scope module mux $end
$var wire      1 !    idata_0 [10] $end
$var wire      1 "    idata_0 [9] $end
$var wire      1 #    idata_0 [8] $end
$var wire      1 $    idata_0 [7] $end
$var wire      1 %    idata_0 [6] $end
$var wire      1 &    idata_0 [5] $end
$var wire      1 '    idata_0 [4] $end
$var wire      1 (    idata_0 [3] $end
$var wire      1 )    idata_0 [2] $end
$var wire      1 *    idata_0 [1] $end
$var wire      1 +    idata_0 [0] $end
$var wire      1 ,    idata_1 [10] $end
$var wire      1 -    idata_1 [9] $end
$var wire      1 .    idata_1 [8] $end
$var wire      1 /    idata_1 [7] $end
$var wire      1 0    idata_1 [6] $end
$var wire      1 1    idata_1 [5] $end
$var wire      1 2    idata_1 [4] $end
$var wire      1 3    idata_1 [3] $end
$var wire      1 4    idata_1 [2] $end
$var wire      1 5    idata_1 [1] $end
$var wire      1 6    idata_1 [0] $end
$var wire      1 7    idata_2 [10] $end
$var wire      1 8    idata_2 [9] $end
$var wire      1 9    idata_2 [8] $end
$var wire      1 :    idata_2 [7] $end
$var wire      1 ;    idata_2 [6] $end
$var wire      1 <    idata_2 [5] $end
$var wire      1 =    idata_2 [4] $end
$var wire      1 >    idata_2 [3] $end
$var wire      1 ?    idata_2 [2] $end
$var wire      1 @    idata_2 [1] $end
$var wire      1 A    idata_2 [0] $end
$var wire      1 B    idata_3 [10] $end
$var wire      1 C    idata_3 [9] $end
$var wire      1 D    idata_3 [8] $end
$var wire      1 E    idata_3 [7] $end
$var wire      1 F    idata_3 [6] $end
$var wire      1 G    idata_3 [5] $end
$var wire      1 H    idata_3 [4] $end
$var wire      1 I    idata_3 [3] $end
$var wire      1 J    idata_3 [2] $end
$var wire      1 K    idata_3 [1] $end
$var wire      1 L    idata_3 [0] $end
$var wire      1 M    ivalid_0  $end
$var wire      1 N    ivalid_1  $end
$var wire      1 O    ivalid_2  $end
$var wire      1 P    ivalid_3  $end
$var wire      1 Q    ivch_0 [1] $end
$var wire      1 R    ivch_0 [0] $end
$var wire      1 S    ivch_1 [1] $end
$var wire      1 T    ivch_1 [0] $end
$var wire      1 U    ivch_2 [1] $end
$var wire      1 V    ivch_2 [0] $end
$var wire      1 W    ivch_3 [1] $end
$var wire      1 X    ivch_3 [0] $end
$var wire      1 Y    sel [3] $end
$var wire      1 Z    sel [2] $end
$var wire      1 [    sel [1] $end
$var wire      1 \    sel [0] $end
$var wire      1 ]    odata [10] $end
$var wire      1 ^    odata [9] $end
$var wire      1 _    odata [8] $end
$var wire      1 `    odata [7] $end
$var wire      1 a    odata [6] $end
$var wire      1 b    odata [5] $end
$var wire      1 c    odata [4] $end
$var wire      1 d    odata [3] $end
$var wire      1 e    odata [2] $end
$var wire      1 f    odata [1] $end
$var wire      1 g    odata [0] $end
$var wire      1 h    ovalid  $end
$var wire      1 i    ovch [1] $end
$var wire      1 j    ovch [0] $end
$var wire      1 k    n_0  $end
$var wire      1 l    n_1  $end
$var wire      1 m    n_2  $end
$var wire      1 n    n_3  $end
$var wire      1 o    n_4  $end
$var wire      1 p    n_5  $end
$var wire      1 q    n_6  $end
$var wire      1 r    n_7  $end
$var wire      1 s    n_8  $end
$var wire      1 t    n_9  $end
$var wire      1 u    n_10  $end
$var wire      1 v    n_11  $end
$var wire      1 w    n_12  $end
$var wire      1 x    n_13  $end
$var wire      1 y    n_14  $end
$var wire      1 z    n_15  $end
$var wire      1 {    n_16  $end
$var wire      1 |    n_17  $end
$var wire      1 }    n_18  $end
$var wire      1 ~    n_24  $end
$var wire      1 !!   n_26  $end
$var wire      1 "!   n_33  $end
$var wire      1 #!   n_34  $end

$scope module g858__2398 $end
$var wire      1 #!   A1  $end
$var wire      1 '    A2  $end
$var wire      1 "!   B1  $end
$var wire      1 2    B2  $end
$var wire      1 }    C  $end
$var wire      1 c    Z  $end
$var wire      1 $!   I0_out  $end
$var wire      1 %!   I1_out  $end
$upscope $end


$scope module g866__5107 $end
$var wire      1 #!   A1  $end
$var wire      1 "    A2  $end
$var wire      1 "!   B1  $end
$var wire      1 -    B2  $end
$var wire      1 r    C  $end
$var wire      1 ^    Z  $end
$var wire      1 &!   I0_out  $end
$var wire      1 '!   I1_out  $end
$upscope $end


$scope module g859__6260 $end
$var wire      1 #!   A1  $end
$var wire      1 #    A2  $end
$var wire      1 ~    B1  $end
$var wire      1 D    B2  $end
$var wire      1 z    C  $end
$var wire      1 _    Z  $end
$var wire      1 (!   I0_out  $end
$var wire      1 )!   I1_out  $end
$upscope $end


$scope module g867__4319 $end
$var wire      1 #!   A1  $end
$var wire      1 $    A2  $end
$var wire      1 "!   B1  $end
$var wire      1 /    B2  $end
$var wire      1 {    C  $end
$var wire      1 `    Z  $end
$var wire      1 *!   I0_out  $end
$var wire      1 +!   I1_out  $end
$upscope $end


$scope module g869__8428 $end
$var wire      1 #!   A1  $end
$var wire      1 %    A2  $end
$var wire      1 "!   B1  $end
$var wire      1 0    B2  $end
$var wire      1 u    C  $end
$var wire      1 a    Z  $end
$var wire      1 ,!   I0_out  $end
$var wire      1 -!   I1_out  $end
$upscope $end


$scope module g860__5526 $end
$var wire      1 #!   A1  $end
$var wire      1 &    A2  $end
$var wire      1 "!   B1  $end
$var wire      1 1    B2  $end
$var wire      1 y    C  $end
$var wire      1 b    Z  $end
$var wire      1 .!   I0_out  $end
$var wire      1 /!   I1_out  $end
$upscope $end


$scope module g864__6783 $end
$var wire      1 #!   A1  $end
$var wire      1 !    A2  $end
$var wire      1 !!   B1  $end
$var wire      1 7    B2  $end
$var wire      1 s    C  $end
$var wire      1 ]    Z  $end
$var wire      1 0!   I0_out  $end
$var wire      1 1!   I1_out  $end
$upscope $end


$scope module g863__3680 $end
$var wire      1 #!   A1  $end
$var wire      1 R    A2  $end
$var wire      1 !!   B1  $end
$var wire      1 V    B2  $end
$var wire      1 w    C  $end
$var wire      1 j    Z  $end
$var wire      1 2!   I0_out  $end
$var wire      1 3!   I1_out  $end
$upscope $end


$scope module g868__1617 $end
$var wire      1 #!   A1  $end
$var wire      1 )    A2  $end
$var wire      1 ~    B1  $end
$var wire      1 J    B2  $end
$var wire      1 x    C  $end
$var wire      1 e    Z  $end
$var wire      1 4!   I0_out  $end
$var wire      1 5!   I1_out  $end
$upscope $end


$scope module g870__2802 $end
$var wire      1 #!   A1  $end
$var wire      1 *    A2  $end
$var wire      1 "!   B1  $end
$var wire      1 5    B2  $end
$var wire      1 p    C  $end
$var wire      1 f    Z  $end
$var wire      1 6!   I0_out  $end
$var wire      1 7!   I1_out  $end
$upscope $end


$scope module g865__1705 $end
$var wire      1 #!   A1  $end
$var wire      1 +    A2  $end
$var wire      1 "!   B1  $end
$var wire      1 6    B2  $end
$var wire      1 v    C  $end
$var wire      1 g    Z  $end
$var wire      1 8!   I0_out  $end
$var wire      1 9!   I1_out  $end
$upscope $end


$scope module g861__5122 $end
$var wire      1 #!   A1  $end
$var wire      1 M    A2  $end
$var wire      1 "!   B1  $end
$var wire      1 N    B2  $end
$var wire      1 |    C  $end
$var wire      1 h    Z  $end
$var wire      1 :!   I0_out  $end
$var wire      1 ;!   I1_out  $end
$upscope $end


$scope module g862__8246 $end
$var wire      1 #!   A1  $end
$var wire      1 Q    A2  $end
$var wire      1 !!   B1  $end
$var wire      1 U    B2  $end
$var wire      1 t    C  $end
$var wire      1 i    Z  $end
$var wire      1 <!   I0_out  $end
$var wire      1 =!   I1_out  $end
$upscope $end


$scope module g871__7098 $end
$var wire      1 #!   A1  $end
$var wire      1 (    A2  $end
$var wire      1 "!   B1  $end
$var wire      1 3    B2  $end
$var wire      1 q    C  $end
$var wire      1 d    Z  $end
$var wire      1 >!   I0_out  $end
$var wire      1 ?!   I1_out  $end
$upscope $end


$scope module g877__6131 $end
$var wire      1 ~    A1  $end
$var wire      1 H    A2  $end
$var wire      1 =    B1  $end
$var wire      1 !!   B2  $end
$var wire      1 }    Z  $end
$var wire      1 @!   I0_out  $end
$var wire      1 A!   I1_out  $end
$upscope $end


$scope module g873__1881 $end
$var wire      1 ~    A1  $end
$var wire      1 P    A2  $end
$var wire      1 O    B1  $end
$var wire      1 !!   B2  $end
$var wire      1 |    Z  $end
$var wire      1 B!   I0_out  $end
$var wire      1 C!   I1_out  $end
$upscope $end


$scope module g880__5115 $end
$var wire      1 ~    A1  $end
$var wire      1 E    A2  $end
$var wire      1 :    B1  $end
$var wire      1 !!   B2  $end
$var wire      1 {    Z  $end
$var wire      1 D!   I0_out  $end
$var wire      1 E!   I1_out  $end
$upscope $end


$scope module g876__7482 $end
$var wire      1 "!   A1  $end
$var wire      1 .    A2  $end
$var wire      1 9    B1  $end
$var wire      1 !!   B2  $end
$var wire      1 z    Z  $end
$var wire      1 F!   I0_out  $end
$var wire      1 G!   I1_out  $end
$upscope $end


$scope module g874__4733 $end
$var wire      1 ~    A1  $end
$var wire      1 G    A2  $end
$var wire      1 <    B1  $end
$var wire      1 !!   B2  $end
$var wire      1 y    Z  $end
$var wire      1 H!   I0_out  $end
$var wire      1 I!   I1_out  $end
$upscope $end


$scope module g881__6161 $end
$var wire      1 "!   A1  $end
$var wire      1 4    A2  $end
$var wire      1 ?    B1  $end
$var wire      1 !!   B2  $end
$var wire      1 x    Z  $end
$var wire      1 J!   I0_out  $end
$var wire      1 K!   I1_out  $end
$upscope $end


$scope module g872__9315 $end
$var wire      1 "!   A1  $end
$var wire      1 T    A2  $end
$var wire      1 X    B1  $end
$var wire      1 ~    B2  $end
$var wire      1 w    Z  $end
$var wire      1 L!   I0_out  $end
$var wire      1 M!   I1_out  $end
$upscope $end


$scope module g879__9945 $end
$var wire      1 ~    A1  $end
$var wire      1 L    A2  $end
$var wire      1 A    B1  $end
$var wire      1 !!   B2  $end
$var wire      1 v    Z  $end
$var wire      1 N!   I0_out  $end
$var wire      1 O!   I1_out  $end
$upscope $end


$scope module g883__2883 $end
$var wire      1 ~    A1  $end
$var wire      1 F    A2  $end
$var wire      1 ;    B1  $end
$var wire      1 !!   B2  $end
$var wire      1 u    Z  $end
$var wire      1 P!   I0_out  $end
$var wire      1 Q!   I1_out  $end
$upscope $end


$scope module g875__2346 $end
$var wire      1 "!   A1  $end
$var wire      1 S    A2  $end
$var wire      1 W    B1  $end
$var wire      1 ~    B2  $end
$var wire      1 t    Z  $end
$var wire      1 R!   I0_out  $end
$var wire      1 S!   I1_out  $end
$upscope $end


$scope module g878__1666 $end
$var wire      1 "!   A1  $end
$var wire      1 ,    A2  $end
$var wire      1 B    B1  $end
$var wire      1 ~    B2  $end
$var wire      1 s    Z  $end
$var wire      1 T!   I0_out  $end
$var wire      1 U!   I1_out  $end
$upscope $end


$scope module g884__7410 $end
$var wire      1 ~    A1  $end
$var wire      1 C    A2  $end
$var wire      1 8    B1  $end
$var wire      1 !!   B2  $end
$var wire      1 r    Z  $end
$var wire      1 V!   I0_out  $end
$var wire      1 W!   I1_out  $end
$upscope $end


$scope module g885__6417 $end
$var wire      1 ~    A1  $end
$var wire      1 I    A2  $end
$var wire      1 >    B1  $end
$var wire      1 !!   B2  $end
$var wire      1 q    Z  $end
$var wire      1 X!   I0_out  $end
$var wire      1 Y!   I1_out  $end
$upscope $end


$scope module g882__5477 $end
$var wire      1 ~    A1  $end
$var wire      1 K    A2  $end
$var wire      1 @    B1  $end
$var wire      1 !!   B2  $end
$var wire      1 p    Z  $end
$var wire      1 Z!   I0_out  $end
$var wire      1 [!   I1_out  $end
$upscope $end


$scope module g886__2398 $end
$var wire      1 m    A1  $end
$var wire      1 \    B1  $end
$var wire      1 !!   ZN  $end
$var wire      1 \!   I0_out  $end
$var wire      1 ]!   I1_out  $end
$upscope $end


$scope module g887__5107 $end
$var wire      1 n    A1  $end
$var wire      1 \    B1  $end
$var wire      1 ~    ZN  $end
$var wire      1 ^!   I0_out  $end
$var wire      1 _!   I1_out  $end
$upscope $end


$scope module g889__6260 $end
$var wire      1 o    A1  $end
$var wire      1 k    A2  $end
$var wire      1 \    A3  $end
$var wire      1 #!   Z  $end
$upscope $end


$scope module g888__4319 $end
$var wire      1 o    A1  $end
$var wire      1 l    A2  $end
$var wire      1 [    A3  $end
$var wire      1 "!   Z  $end
$upscope $end


$scope module g891__8428 $end
$var wire      1 Y    A1  $end
$var wire      1 Z    B1  $end
$var wire      1 [    B2  $end
$var wire      1 n    ZN  $end
$var wire      1 `!   I0_out  $end
$var wire      1 a!   I2_out  $end
$upscope $end


$scope module g890__5526 $end
$var wire      1 Z    A1  $end
$var wire      1 Y    B1  $end
$var wire      1 [    B2  $end
$var wire      1 m    ZN  $end
$var wire      1 b!   I0_out  $end
$var wire      1 c!   I2_out  $end
$upscope $end


$scope module g892__6783 $end
$var wire      1 Y    A1  $end
$var wire      1 Z    A2  $end
$var wire      1 o    ZN  $end
$var wire      1 d!   I0_out  $end
$upscope $end


$scope module g894 $end
$var wire      1 \    I  $end
$var wire      1 l    ZN  $end
$upscope $end


$scope module g893 $end
$var wire      1 [    I  $end
$var wire      1 k    ZN  $end
$upscope $end

$upscope $end

$upscope $end

$enddefinitions $end
$dumpvars
0!
0"
0#
0$
0%
0&
0'
0(
0)
0*
0+
0,
0-
0.
0/
00
01
02
03
04
05
06
07
08
09
0:
0;
0<
0=
0>
0?
0@
0A
0B
0C
0D
0E
0F
0G
0H
0I
0J
0K
0L
0M
0N
0O
0P
0Q
0R
0S
0T
0U
0V
0W
0X
0Y
0Z
0[
0\
0]
0^
0_
0`
0a
0b
0c
0d
0e
0f
0g
0h
0i
0j
1k
1l
0m
0n
1o
0p
0q
0r
0s
0t
0u
0v
0w
0x
0y
0z
0{
0|
0}
0~
0!!
0"!
0#!
0$!
0%!
0&!
0'!
0(!
0)!
0*!
0+!
0,!
0-!
0.!
0/!
00!
01!
02!
03!
04!
05!
06!
07!
08!
09!
0:!
0;!
0<!
0=!
0>!
0?!
0@!
0A!
0B!
0C!
0D!
0E!
0F!
0G!
0H!
0I!
0J!
0K!
0L!
0M!
0N!
0O!
0P!
0Q!
0R!
0S!
0T!
0U!
0V!
0W!
0X!
0Y!
0Z!
0[!
1\!
1]!
1^!
1_!
1`!
1a!
1b!
1c!
0d!
$end
$dumpoff
x!
x"
x#
x$
x%
x&
x'
x(
x)
x*
x+
x,
x-
x.
x/
x0
x1
x2
x3
x4
x5
x6
x7
x8
x9
x:
x;
x<
x=
x>
x?
x@
xA
xB
xC
xD
xE
xF
xG
xH
xI
xJ
xK
xL
xM
xN
xO
xP
xQ
xR
xS
xT
xU
xV
xW
xX
xY
xZ
x[
x\
x]
x^
x_
x`
xa
xb
xc
xd
xe
xf
xg
xh
xi
xj
xk
xl
xm
xn
xo
xp
xq
xr
xs
xt
xu
xv
xw
xx
xy
xz
x{
x|
x}
x~
x!!
x"!
x#!
x$!
x%!
x&!
x'!
x(!
x)!
x*!
x+!
x,!
x-!
x.!
x/!
x0!
x1!
x2!
x3!
x4!
x5!
x6!
x7!
x8!
x9!
x:!
x;!
x<!
x=!
x>!
x?!
x@!
xA!
xB!
xC!
xD!
xE!
xF!
xG!
xH!
xI!
xJ!
xK!
xL!
xM!
xN!
xO!
xP!
xQ!
xR!
xS!
xT!
xU!
xV!
xW!
xX!
xY!
xZ!
x[!
x\!
x]!
x^!
x_!
x`!
xa!
xb!
xc!
xd!
$end
#25000
$dumpon
0!
0"
0#
0$
0%
0&
0'
0(
0)
0*
0+
0,
0-
0.
0/
00
01
02
03
04
05
06
07
08
09
0:
0;
0<
0=
0>
0?
0@
0A
0B
0C
0D
0E
0F
0G
0H
0I
0J
0K
0L
0M
0N
0O
0P
0Q
0R
0S
0T
0U
0V
0W
0X
0Y
0Z
0[
0\
0]
0^
0_
0`
0a
0b
0c
0d
0e
0f
0g
0h
0i
0j
1k
1l
0m
0n
1o
0p
0q
0r
0s
0t
0u
0v
0w
0x
0y
0z
0{
0|
0}
0~
0!!
0"!
0#!
1$!
1%!
1&!
1'!
1(!
1)!
1*!
1+!
0,!
0-!
0.!
0/!
00!
01!
02!
03!
04!
05!
06!
07!
08!
09!
0:!
0;!
0<!
0=!
0>!
0?!
0@!
0A!
0B!
0C!
0D!
0E!
0F!
0G!
0H!
0I!
0J!
0K!
0L!
0M!
0N!
0O!
0P!
0Q!
0R!
0S!
0T!
0U!
0V!
0W!
0X!
0Y!
0Z!
0[!
0\!
0]!
0^!
0_!
0`!
0a!
0b!
0c!
0d!
$end
1P
1J
1K
1O
1A
1N
14
1M
1(
1+
1[
0k
1"!
0K!
0;!
1h
1x
1e
#35000
1B
1C
1E
0J
0K
1L
17
18
1:
04
15
16
1!
1"
1$
0(
09!
07!
0K!
0x
1f
1g
0e
#45000
0C
1H
1I
1J
0L
08
1=
1>
1?
0A
13
14
0"
1'
1(
1)
0+
0?!
0K!
1x
1d
1e
#55000
0B
0J
1K
1L
07
0?
1@
1A
11
12
0!
0)
1*
1+
1%!
0/!
1b
1c
#65000
1C
1D
0E
0K
18
19
0:
0@
1/
10
1"
1#
0$
0*
0-!
1+!
1`
1a
#75000
0D
1F
0H
0I
1K
0L
09
1;
0=
0>
1@
0A
05
06
0#
1%
0'
0(
1*
0+
09!
07!
0f
0g
#85000
1B
0C
1D
0F
1I
1J
0K
1L
17
08
19
0;
1>
1?
0@
1A
03
04
1!
0"
1#
0%
1(
1)
0*
1+
0?!
0K!
0x
0d
0e
#95000
0B
0D
1E
1H
1K
07
09
1:
1=
1@
01
02
0!
0#
1$
1'
1*
1%!
0/!
0b
0c
#105000
1C
1D
1G
0H
0I
0J
0K
18
19
1<
0=
0>
0?
0@
0/
00
1"
1#
1&
0'
0(
0)
0*
0-!
1+!
0`
0a
#115000
0C
0D
1H
1I
0L
08
09
1=
1>
0A
15
16
0"
0#
1'
1(
0+
09!
07!
1f
1g
#125000
1C
1D
0H
0I
1J
1K
18
19
0=
0>
1?
1@
13
14
1"
1#
0'
0(
1)
1*
0?!
0K!
1x
1d
1e
#135000
0C
0D
0E
1F
0G
1I
0J
1L
08
09
0:
1;
0<
1>
0?
1A
11
12
0"
0#
0$
1%
0&
1(
0)
1+
1%!
0/!
1b
1c
#145000
1E
0F
0I
1J
0K
0L
1:
0;
0>
1?
0@
0A
1/
10
1$
0%
0(
1)
0*
0+
0-!
1+!
1`
1a
#155000
1G
1I
1K
1<
1>
1@
05
06
1&
1(
1*
09!
07!
0f
0g
#165000
1B
1C
0E
1F
0I
0K
1L
17
18
0:
1;
0>
0@
1A
03
04
1!
1"
0$
1%
0(
0*
1+
0K!
0?!
0d
0x
0e
#175000
0B
1D
1E
0G
1H
1I
1K
0L
07
19
1:
0<
1=
1>
1@
0A
01
02
0!
1#
1$
0&
1'
1(
1*
0+
1%!
0/!
0b
0c
#185000
1B
0C
0D
0F
1G
0I
17
08
09
0;
1<
0>
0/
00
1!
0"
0#
0%
1&
0(
0-!
1+!
0`
0a
#195000
0B
0J
0K
07
0?
0@
15
16
0!
0)
0*
09!
07!
1f
1g
#205000
1B
1C
1I
1J
1L
17
18
1>
1?
1A
13
14
1!
1"
1(
1)
1+
0?!
0K!
1x
1d
1e
#215000
1D
1F
0G
0H
0I
0L
19
1;
0<
0=
0>
0A
11
12
1#
1%
0&
0'
0(
0+
1%!
0/!
1b
1c
#225000
0D
1H
1I
0J
1L
09
1=
1>
0?
1A
1/
10
0#
1'
1(
0)
1+
0-!
1+!
1`
1a
#235000
0B
1D
0F
1G
0I
1J
0L
07
19
0;
1<
0>
1?
0A
1-
1.
00
03
05
06
0!
1#
0%
1&
0(
1)
0+
09!
07!
0?!
0-!
1'!
0G!
1z
1^
0a
0d
0f
0g
1_
#245000
0P
0C
0D
0E
0G
0H
0J
0O
08
09
0:
0<
0=
0?
0N
0-
0.
0/
01
02
04
0M
0"
0#
0$
0&
0'
0)
1%!
0/!
1+!
1'!
0;!
0K!
0G!
0z
0x
0h
0^
0`
0b
0c
0_
0e
#315000
1P
1J
1K
1O
1A
1N
14
1M
1(
1+
0K!
0;!
1h
1x
1e
#325000
1B
1C
1D
1F
1G
1H
1I
0J
1L
17
18
19
1;
1<
1=
1>
1@
04
15
16
1!
1"
1#
1%
1&
1'
1*
09!
07!
0K!
0x
1f
1g
0e
#335000
0B
0C
0D
0G
0H
0K
07
08
09
0<
0=
0@
13
14
0!
0"
0#
0&
0'
0*
0K!
0?!
1d
1x
1e
#345000
1B
1C
1D
0I
1J
1K
0L
17
18
19
0>
1?
1@
0A
11
12
1!
1"
1#
0(
1)
1*
0+
1%!
0/!
1b
1c
#355000
0B
0C
1G
0J
1L
07
08
1<
0?
1A
1/
10
0!
0"
1&
0)
1+
0-!
1+!
1`
1a
#365000
1C
0D
1E
0F
1J
0K
0L
18
09
1:
0;
1?
0@
0A
05
06
1"
0#
1$
0%
1)
0*
0+
09!
07!
0f
0g
#375000
0C
0G
0J
08
0<
0?
03
04
0"
0&
0)
0?!
0K!
0x
0d
0e
#385000
1B
0E
1F
1K
17
0:
1;
1@
01
02
1!
0$
1%
1*
1%!
0/!
0b
0c
#395000
1C
1D
1E
0F
1H
1I
1J
1L
18
19
1:
0;
1=
1>
1?
1A
0/
00
1"
1#
1$
0%
1'
1(
1)
1+
0-!
1+!
0`
0a
#405000
0C
0E
1F
1G
0H
0I
0J
0K
08
0:
1;
1<
0=
0>
0?
0@
15
16
0"
0$
1%
1&
0'
0(
0)
0*
09!
07!
1f
1g
#415000
0B
0D
0G
1H
1I
1K
0L
07
09
0<
1=
1>
1@
0A
13
14
0!
0#
0&
1'
1(
1*
0+
0K!
0?!
1d
1x
1e
#425000
0F
1G
0H
0;
1<
0=
11
12
0%
1&
0'
1%!
0/!
1b
1c
#435000
1B
1C
1D
1F
1H
0K
1L
17
18
19
1;
1=
0@
1A
1/
10
1!
1"
1#
1%
1'
0*
1+
0-!
1+!
1`
1a
#445000
0C
0F
0G
0H
1J
1K
0L
08
0;
0<
0=
1?
1@
0A
05
06
0"
0%
0&
0'
1)
1*
0+
09!
07!
0f
0g
#455000
0B
1C
1E
1F
1L
07
18
1:
1;
1A
03
04
0!
1"
1$
1%
1+
0K!
0?!
0d
0x
0e
#465000
0C
0D
0F
1G
1H
0K
0L
08
09
0;
1<
1=
0@
0A
01
02
0"
0#
0%
1&
1'
0*
0+
1%!
0/!
0b
0c
#475000
1B
1C
1D
0I
0J
1L
17
18
19
0>
0?
1A
0/
00
1!
1"
1#
0(
0)
1+
0-!
1+!
0`
0a
#485000
0B
0C
0D
1F
1I
1K
07
08
09
1;
1>
1@
15
16
0!
0"
0#
1%
1(
1*
09!
07!
1f
1g
#495000
1B
1C
1D
0E
0G
0H
0I
0K
17
18
19
0:
0<
0=
0>
0@
13
14
1!
1"
1#
0$
0&
0'
0(
0*
0K!
0?!
1d
1x
1e
#505000
1G
1H
1<
1=
11
12
1&
1'
1%!
0/!
1b
1c
#515000
0B
0D
1J
1K
0L
07
09
1?
1@
0A
1/
10
0!
0#
1)
1*
0+
0-!
1+!
1`
1a
#525000
1B
0C
0F
0H
1L
17
08
0;
0=
1A
1,
0/
00
02
03
1!
0"
0%
0'
1+
0?!
1%!
0-!
1+!
0U!
1s
0`
0a
0c
0d
1]
#535000
0P
0B
0G
0J
0K
0L
0O
07
0<
0?
0@
0A
0N
0,
01
04
05
06
0M
0!
0&
0)
0*
0+
09!
07!
0/!
0;!
0K!
0U!
0s
0x
0h
0b
0f
0g
0]
0e
#605000
1P
1J
1K
1O
1A
1N
14
1M
1(
1+
0K!
0;!
1h
1x
1e
#615000
1B
1C
1F
1H
0J
0K
17
18
1;
1=
0A
04
15
16
1!
1"
1%
1'
0(
0+
09!
07!
0K!
0x
1f
1g
0e
#625000
1E
1G
1I
1K
1:
1<
1>
1@
13
14
1$
1&
1(
1*
0K!
0?!
1d
1x
1e
#635000
0B
0C
1D
0E
0F
0G
0I
0K
1L
07
08
19
0:
0;
0<
0>
0@
1A
11
12
0!
0"
1#
0$
0%
0&
0(
0*
1+
1%!
0/!
1b
1c
#645000
1B
0D
0H
1I
1J
1K
0L
17
09
0=
1>
1?
1@
0A
1/
10
1!
0#
0'
1(
1)
1*
0+
0-!
1+!
1`
1a
#655000
1C
1H
0K
18
1=
0@
05
06
1"
1'
0*
09!
07!
0f
0g
#665000
0B
0C
1D
1F
1G
0I
07
08
19
1;
1<
0>
03
04
0!
0"
1#
1%
1&
0(
0K!
0?!
0d
0x
0e
#675000
1B
1C
0G
0H
1I
1K
1L
17
18
0<
0=
1>
1@
1A
01
02
1!
1"
0&
0'
1(
1*
1+
1%!
0/!
0b
0c
#685000
0C
0D
0I
0K
08
09
0>
0@
0/
00
0"
0#
0(
0*
0-!
1+!
0`
0a
#695000
0B
1D
0F
1G
1I
0J
07
19
0;
1<
1>
0?
15
16
0!
1#
0%
1&
1(
0)
09!
07!
1f
1g
#705000
1B
1C
1F
0G
17
18
1;
0<
13
14
1!
1"
1%
0&
0K!
0?!
1d
1x
1e
#715000
0D
1H
0I
0L
09
1=
0>
0A
11
12
0#
1'
0(
0+
1%!
0/!
1b
1c
#725000
0B
0C
1E
1G
07
08
1:
1<
1/
10
0!
0"
1$
1&
0-!
1+!
1`
1a
#735000
1C
1D
0G
0H
1I
1J
1L
18
19
0<
0=
1>
1?
1A
05
06
1"
1#
0&
0'
1(
1)
1+
09!
07!
0f
0g
#745000
1B
0C
0D
0F
1G
0J
0L
17
08
09
0;
1<
0?
0A
03
04
1!
0"
0#
0%
1&
0)
0+
0?!
0K!
0x
0d
0e
#755000
0B
0E
0G
0I
1K
07
0:
0<
0>
1@
01
02
0!
0$
0&
0(
1*
1%!
0/!
0b
0c
#765000
1C
1F
1H
1I
1J
0K
18
1;
1=
1>
1?
0@
0/
00
1"
1%
1'
1(
1)
0*
0-!
1+!
0`
0a
#775000
1B
1E
1G
0H
0J
17
1:
1<
0=
0?
15
16
1!
1$
1&
0'
0)
09!
07!
1f
1g
#785000
1D
0F
1H
0I
1L
19
0;
1=
0>
1A
13
14
1#
0%
1'
0(
1+
0K!
0?!
1d
1x
1e
#795000
0C
0E
0H
1J
1K
0L
08
0:
0=
1?
1@
0A
11
12
0"
0$
0'
1)
1*
0+
1%!
0/!
1b
1c
#805000
0B
1H
1I
0K
07
1=
1>
0@
1/
10
0!
1'
1(
0*
0-!
1+!
1`
1a
#815000
1B
0D
0G
0H
0I
17
09
0<
0=
0>
1,
0/
00
01
02
03
05
06
1!
0#
0&
0'
0(
09!
07!
0?!
1%!
0/!
0-!
1+!
0U!
1s
0`
0a
0b
0c
0d
0f
0g
1]
#825000
0P
0B
0J
0O
07
0?
0N
0,
04
0M
0!
0)
0;!
0K!
0U!
0s
0x
0h
0]
0e
#895000
1P
1J
1K
1O
1A
1N
14
1M
1(
1+
0K!
0;!
1h
1x
1e
#905000
1E
1H
1L
1:
1=
1?
1@
04
15
16
1$
1'
0(
1)
1*
09!
07!
0K!
0x
1f
1g
0e
#915000
1B
1D
1F
1G
1I
0J
0K
0L
17
19
1;
1<
1>
0?
0@
0A
13
14
1!
1#
1%
1&
1(
0)
0*
0+
0?!
0K!
1x
1d
1e
#925000
1C
0D
0E
0H
1J
1L
18
09
0:
0=
1?
1A
11
12
1"
0#
0$
0'
1)
1+
1%!
0/!
1b
1c
#935000
0F
0G
1H
0I
0L
0;
0<
1=
0>
0A
1/
10
0%
0&
1'
0(
0+
0-!
1+!
1`
1a
#945000
1E
1G
0H
1I
1L
1:
1<
0=
1>
1A
05
06
1$
1&
0'
1(
1+
09!
07!
0f
0g
#955000
0C
1D
0E
0G
1K
08
19
0:
0<
1@
03
04
0"
1#
0$
0&
1*
0K!
0?!
0d
0x
0e
#965000
0B
1C
1E
1F
1G
0I
0J
07
18
1:
1;
1<
0>
0?
01
02
0!
1"
1$
1%
1&
0(
0)
1%!
0/!
0b
0c
#975000
0C
0D
0E
1H
1J
0K
0L
08
09
0:
1=
1?
0@
0A
0/
00
0"
0#
0$
1'
1)
0*
0+
0-!
1+!
0`
0a
#985000
1C
1E
0F
0G
1K
1L
18
1:
0;
0<
1@
1A
15
16
1"
1$
0%
0&
1*
1+
09!
07!
1f
1g
#995000
1B
0C
0E
1F
1G
0H
1I
0J
17
08
0:
1;
1<
0=
1>
0?
13
14
1!
0"
0$
1%
1&
0'
1(
0)
0?!
0K!
1x
1d
1e
#1005000
0B
1C
1E
0F
0G
0I
1J
07
18
1:
0;
0<
0>
1?
11
12
0!
1"
1$
0%
0&
0(
1)
1%!
0/!
1b
1c
#1015000
0E
1F
1H
0:
1;
1=
1/
10
0$
1%
1'
0-!
1+!
1`
1a
#1025000
1B
0C
1E
0F
0H
0K
0L
17
08
1:
0;
0=
0@
0A
05
06
1!
0"
1$
0%
0'
0*
0+
09!
07!
0f
0g
#1035000
0B
1H
1I
0J
1L
07
1=
1>
0?
1A
03
04
0!
1'
1(
0)
1+
0?!
0K!
0x
0d
0e
#1045000
0E
1F
0H
0I
1K
0L
0:
1;
0=
0>
1@
0A
01
02
0$
1%
0'
0(
1*
0+
1%!
0/!
0b
0c
#1055000
1E
0K
1L
1:
0@
1A
0/
00
1$
0*
1+
0-!
1+!
0`
0a
#1065000
1C
0E
0F
1G
1I
1J
1K
18
0:
0;
1<
1>
1?
1@
15
16
1"
0$
0%
1&
1(
1)
1*
09!
07!
1f
1g
#1075000
1B
0C
0G
0I
17
08
0<
0>
13
14
1!
0"
0&
0(
0K!
0?!
1d
1x
1e
#1085000
1I
0J
0K
0L
1>
0?
0@
0A
11
12
1(
0)
0*
0+
1%!
0/!
1b
1c
#1095000
1C
1E
1G
1H
1L
18
1:
1<
1=
1A
1/
10
1"
1$
1&
1'
1+
0-!
1+!
1`
1a
