sim/mux/dump_mux_25percent_5-1_8BW.vcd
$date
    Jul  6, 2022  18:32:59
$end
$version
    TOOL:	xmsim	19.03-s013
$end
$timescale
    1 ps
$end

$scope module mux_test $end

$scope module mux $end
$var wire      1 !    idata_0 [10] $end
$var wire      1 "    idata_0 [9] $end
$var wire      1 #    idata_0 [8] $end
$var wire      1 $    idata_0 [7] $end
$var wire      1 %    idata_0 [6] $end
$var wire      1 &    idata_0 [5] $end
$var wire      1 '    idata_0 [4] $end
$var wire      1 (    idata_0 [3] $end
$var wire      1 )    idata_0 [2] $end
$var wire      1 *    idata_0 [1] $end
$var wire      1 +    idata_0 [0] $end
$var wire      1 ,    idata_1 [10] $end
$var wire      1 -    idata_1 [9] $end
$var wire      1 .    idata_1 [8] $end
$var wire      1 /    idata_1 [7] $end
$var wire      1 0    idata_1 [6] $end
$var wire      1 1    idata_1 [5] $end
$var wire      1 2    idata_1 [4] $end
$var wire      1 3    idata_1 [3] $end
$var wire      1 4    idata_1 [2] $end
$var wire      1 5    idata_1 [1] $end
$var wire      1 6    idata_1 [0] $end
$var wire      1 7    idata_2 [10] $end
$var wire      1 8    idata_2 [9] $end
$var wire      1 9    idata_2 [8] $end
$var wire      1 :    idata_2 [7] $end
$var wire      1 ;    idata_2 [6] $end
$var wire      1 <    idata_2 [5] $end
$var wire      1 =    idata_2 [4] $end
$var wire      1 >    idata_2 [3] $end
$var wire      1 ?    idata_2 [2] $end
$var wire      1 @    idata_2 [1] $end
$var wire      1 A    idata_2 [0] $end
$var wire      1 B    idata_3 [10] $end
$var wire      1 C    idata_3 [9] $end
$var wire      1 D    idata_3 [8] $end
$var wire      1 E    idata_3 [7] $end
$var wire      1 F    idata_3 [6] $end
$var wire      1 G    idata_3 [5] $end
$var wire      1 H    idata_3 [4] $end
$var wire      1 I    idata_3 [3] $end
$var wire      1 J    idata_3 [2] $end
$var wire      1 K    idata_3 [1] $end
$var wire      1 L    idata_3 [0] $end
$var wire      1 M    idata_4 [10] $end
$var wire      1 N    idata_4 [9] $end
$var wire      1 O    idata_4 [8] $end
$var wire      1 P    idata_4 [7] $end
$var wire      1 Q    idata_4 [6] $end
$var wire      1 R    idata_4 [5] $end
$var wire      1 S    idata_4 [4] $end
$var wire      1 T    idata_4 [3] $end
$var wire      1 U    idata_4 [2] $end
$var wire      1 V    idata_4 [1] $end
$var wire      1 W    idata_4 [0] $end
$var wire      1 X    ivalid_0  $end
$var wire      1 Y    ivalid_1  $end
$var wire      1 Z    ivalid_2  $end
$var wire      1 [    ivalid_3  $end
$var wire      1 \    ivalid_4  $end
$var wire      1 ]    ivch_0 [1] $end
$var wire      1 ^    ivch_0 [0] $end
$var wire      1 _    ivch_1 [1] $end
$var wire      1 `    ivch_1 [0] $end
$var wire      1 a    ivch_2 [1] $end
$var wire      1 b    ivch_2 [0] $end
$var wire      1 c    ivch_3 [1] $end
$var wire      1 d    ivch_3 [0] $end
$var wire      1 e    ivch_4 [1] $end
$var wire      1 f    ivch_4 [0] $end
$var wire      1 g    sel [4] $end
$var wire      1 h    sel [3] $end
$var wire      1 i    sel [2] $end
$var wire      1 j    sel [1] $end
$var wire      1 k    sel [0] $end
$var wire      1 l    odata [10] $end
$var wire      1 m    odata [9] $end
$var wire      1 n    odata [8] $end
$var wire      1 o    odata [7] $end
$var wire      1 p    odata [6] $end
$var wire      1 q    odata [5] $end
$var wire      1 r    odata [4] $end
$var wire      1 s    odata [3] $end
$var wire      1 t    odata [2] $end
$var wire      1 u    odata [1] $end
$var wire      1 v    odata [0] $end
$var wire      1 w    ovalid  $end
$var wire      1 x    ovch [1] $end
$var wire      1 y    ovch [0] $end
$var wire      1 z    n_0  $end
$var wire      1 {    n_1  $end
$var wire      1 |    n_2  $end
$var wire      1 }    n_3  $end
$var wire      1 ~    n_4  $end
$var wire      1 !!   n_5  $end
$var wire      1 "!   n_6  $end
$var wire      1 #!   n_7  $end
$var wire      1 $!   n_8  $end
$var wire      1 %!   n_9  $end
$var wire      1 &!   n_10  $end
$var wire      1 '!   n_11  $end
$var wire      1 (!   n_12  $end
$var wire      1 )!   n_13  $end
$var wire      1 *!   n_14  $end
$var wire      1 +!   n_15  $end
$var wire      1 ,!   n_16  $end
$var wire      1 -!   n_17  $end
$var wire      1 .!   n_18  $end
$var wire      1 /!   n_19  $end
$var wire      1 0!   n_20  $end
$var wire      1 1!   n_29  $end
$var wire      1 2!   n_31  $end
$var wire      1 3!   n_33  $end
$var wire      1 4!   n_34  $end
$var wire      1 5!   n_37  $end

$scope module g1198__2398 $end
$var wire      1 5!   A1  $end
$var wire      1 '    A2  $end
$var wire      1 1!   B1  $end
$var wire      1 2    B2  $end
$var wire      1 *!   C  $end
$var wire      1 r    Z  $end
$var wire      1 6!   I0_out  $end
$var wire      1 7!   I1_out  $end
$upscope $end


$scope module g1188__5107 $end
$var wire      1 3!   A1  $end
$var wire      1 8    A2  $end
$var wire      1 5!   B1  $end
$var wire      1 "    B2  $end
$var wire      1 #!   C  $end
$var wire      1 m    Z  $end
$var wire      1 8!   I0_out  $end
$var wire      1 9!   I1_out  $end
$upscope $end


$scope module g1197__6260 $end
$var wire      1 4!   A1  $end
$var wire      1 O    A2  $end
$var wire      1 2!   B1  $end
$var wire      1 D    B2  $end
$var wire      1 -!   C  $end
$var wire      1 n    Z  $end
$var wire      1 :!   I0_out  $end
$var wire      1 ;!   I1_out  $end
$upscope $end


$scope module g1189__4319 $end
$var wire      1 4!   A1  $end
$var wire      1 P    A2  $end
$var wire      1 3!   B1  $end
$var wire      1 :    B2  $end
$var wire      1 0!   C  $end
$var wire      1 o    Z  $end
$var wire      1 <!   I0_out  $end
$var wire      1 =!   I1_out  $end
$upscope $end


$scope module g1191__8428 $end
$var wire      1 5!   A1  $end
$var wire      1 %    A2  $end
$var wire      1 2!   B1  $end
$var wire      1 F    B2  $end
$var wire      1 '!   C  $end
$var wire      1 p    Z  $end
$var wire      1 >!   I0_out  $end
$var wire      1 ?!   I1_out  $end
$upscope $end


$scope module g1187__5526 $end
$var wire      1 5!   A1  $end
$var wire      1 &    A2  $end
$var wire      1 1!   B1  $end
$var wire      1 1    B2  $end
$var wire      1 %!   C  $end
$var wire      1 q    Z  $end
$var wire      1 @!   I0_out  $end
$var wire      1 A!   I1_out  $end
$upscope $end


$scope module g1193__6783 $end
$var wire      1 4!   A1  $end
$var wire      1 M    A2  $end
$var wire      1 3!   B1  $end
$var wire      1 7    B2  $end
$var wire      1 .!   C  $end
$var wire      1 l    Z  $end
$var wire      1 B!   I0_out  $end
$var wire      1 C!   I1_out  $end
$upscope $end


$scope module g1199__3680 $end
$var wire      1 3!   A1  $end
$var wire      1 b    A2  $end
$var wire      1 5!   B1  $end
$var wire      1 ^    B2  $end
$var wire      1 )!   C  $end
$var wire      1 y    Z  $end
$var wire      1 D!   I0_out  $end
$var wire      1 E!   I1_out  $end
$upscope $end


$scope module g1190__1617 $end
$var wire      1 4!   A1  $end
$var wire      1 U    A2  $end
$var wire      1 3!   B1  $end
$var wire      1 ?    B2  $end
$var wire      1 &!   C  $end
$var wire      1 t    Z  $end
$var wire      1 F!   I0_out  $end
$var wire      1 G!   I1_out  $end
$upscope $end


$scope module g1192__2802 $end
$var wire      1 5!   A1  $end
$var wire      1 *    A2  $end
$var wire      1 2!   B1  $end
$var wire      1 K    B2  $end
$var wire      1 /!   C  $end
$var wire      1 u    Z  $end
$var wire      1 H!   I0_out  $end
$var wire      1 I!   I1_out  $end
$upscope $end


$scope module g1200__1705 $end
$var wire      1 4!   A1  $end
$var wire      1 W    A2  $end
$var wire      1 5!   B1  $end
$var wire      1 +    B2  $end
$var wire      1 $!   C  $end
$var wire      1 v    Z  $end
$var wire      1 J!   I0_out  $end
$var wire      1 K!   I1_out  $end
$upscope $end


$scope module g1195__5122 $end
$var wire      1 3!   A1  $end
$var wire      1 Z    A2  $end
$var wire      1 5!   B1  $end
$var wire      1 X    B2  $end
$var wire      1 ,!   C  $end
$var wire      1 w    Z  $end
$var wire      1 L!   I0_out  $end
$var wire      1 M!   I1_out  $end
$upscope $end


$scope module g1196__8246 $end
$var wire      1 5!   A1  $end
$var wire      1 ]    A2  $end
$var wire      1 2!   B1  $end
$var wire      1 c    B2  $end
$var wire      1 (!   C  $end
$var wire      1 x    Z  $end
$var wire      1 N!   I0_out  $end
$var wire      1 O!   I1_out  $end
$upscope $end


$scope module g1194__7098 $end
$var wire      1 2!   A1  $end
$var wire      1 I    A2  $end
$var wire      1 1!   B1  $end
$var wire      1 3    B2  $end
$var wire      1 +!   C  $end
$var wire      1 s    Z  $end
$var wire      1 P!   I0_out  $end
$var wire      1 Q!   I1_out  $end
$upscope $end


$scope module g1202__6131 $end
$var wire      1 2!   A1  $end
$var wire      1 E    A2  $end
$var wire      1 5!   B1  $end
$var wire      1 $    B2  $end
$var wire      1 1!   C1  $end
$var wire      1 /    C2  $end
$var wire      1 0!   Z  $end
$var wire      1 R!   I0_out  $end
$var wire      1 S!   I1_out  $end
$var wire      1 T!   I3_out  $end
$upscope $end


$scope module g1204__1881 $end
$var wire      1 4!   A1  $end
$var wire      1 V    A2  $end
$var wire      1 3!   B1  $end
$var wire      1 @    B2  $end
$var wire      1 1!   C1  $end
$var wire      1 5    C2  $end
$var wire      1 /!   Z  $end
$var wire      1 U!   I0_out  $end
$var wire      1 V!   I1_out  $end
$var wire      1 W!   I3_out  $end
$upscope $end


$scope module g1207__5115 $end
$var wire      1 1!   A1  $end
$var wire      1 ,    A2  $end
$var wire      1 5!   B1  $end
$var wire      1 !    B2  $end
$var wire      1 2!   C1  $end
$var wire      1 B    C2  $end
$var wire      1 .!   Z  $end
$var wire      1 X!   I0_out  $end
$var wire      1 Y!   I1_out  $end
$var wire      1 Z!   I3_out  $end
$upscope $end


$scope module g1213__7482 $end
$var wire      1 3!   A1  $end
$var wire      1 9    A2  $end
$var wire      1 5!   B1  $end
$var wire      1 #    B2  $end
$var wire      1 1!   C1  $end
$var wire      1 .    C2  $end
$var wire      1 -!   Z  $end
$var wire      1 [!   I0_out  $end
$var wire      1 \!   I1_out  $end
$var wire      1 ]!   I3_out  $end
$upscope $end


$scope module g1214__4733 $end
$var wire      1 4!   A1  $end
$var wire      1 \    A2  $end
$var wire      1 1!   B1  $end
$var wire      1 Y    B2  $end
$var wire      1 2!   C1  $end
$var wire      1 [    C2  $end
$var wire      1 ,!   Z  $end
$var wire      1 ^!   I0_out  $end
$var wire      1 _!   I1_out  $end
$var wire      1 `!   I3_out  $end
$upscope $end


$scope module g1208__6161 $end
$var wire      1 4!   A1  $end
$var wire      1 T    A2  $end
$var wire      1 5!   B1  $end
$var wire      1 (    B2  $end
$var wire      1 3!   C1  $end
$var wire      1 >    C2  $end
$var wire      1 +!   Z  $end
$var wire      1 a!   I0_out  $end
$var wire      1 b!   I1_out  $end
$var wire      1 c!   I3_out  $end
$upscope $end


$scope module g1212__9315 $end
$var wire      1 4!   A1  $end
$var wire      1 S    A2  $end
$var wire      1 2!   B1  $end
$var wire      1 H    B2  $end
$var wire      1 3!   C1  $end
$var wire      1 =    C2  $end
$var wire      1 *!   Z  $end
$var wire      1 d!   I0_out  $end
$var wire      1 e!   I1_out  $end
$var wire      1 f!   I3_out  $end
$upscope $end


$scope module g1211__9945 $end
$var wire      1 4!   A1  $end
$var wire      1 f    A2  $end
$var wire      1 2!   B1  $end
$var wire      1 d    B2  $end
$var wire      1 1!   C1  $end
$var wire      1 `    C2  $end
$var wire      1 )!   Z  $end
$var wire      1 g!   I0_out  $end
$var wire      1 h!   I1_out  $end
$var wire      1 i!   I3_out  $end
$upscope $end


$scope module g1209__2883 $end
$var wire      1 4!   A1  $end
$var wire      1 e    A2  $end
$var wire      1 1!   B1  $end
$var wire      1 _    B2  $end
$var wire      1 3!   C1  $end
$var wire      1 a    C2  $end
$var wire      1 (!   Z  $end
$var wire      1 j!   I0_out  $end
$var wire      1 k!   I1_out  $end
$var wire      1 l!   I3_out  $end
$upscope $end


$scope module g1205__2346 $end
$var wire      1 4!   A1  $end
$var wire      1 Q    A2  $end
$var wire      1 3!   B1  $end
$var wire      1 ;    B2  $end
$var wire      1 1!   C1  $end
$var wire      1 0    C2  $end
$var wire      1 '!   Z  $end
$var wire      1 m!   I0_out  $end
$var wire      1 n!   I1_out  $end
$var wire      1 o!   I3_out  $end
$upscope $end


$scope module g1203__1666 $end
$var wire      1 2!   A1  $end
$var wire      1 J    A2  $end
$var wire      1 5!   B1  $end
$var wire      1 )    B2  $end
$var wire      1 1!   C1  $end
$var wire      1 4    C2  $end
$var wire      1 &!   Z  $end
$var wire      1 p!   I0_out  $end
$var wire      1 q!   I1_out  $end
$var wire      1 r!   I3_out  $end
$upscope $end


$scope module g1210__7410 $end
$var wire      1 4!   A1  $end
$var wire      1 R    A2  $end
$var wire      1 2!   B1  $end
$var wire      1 G    B2  $end
$var wire      1 3!   C1  $end
$var wire      1 <    C2  $end
$var wire      1 %!   Z  $end
$var wire      1 s!   I0_out  $end
$var wire      1 t!   I1_out  $end
$var wire      1 u!   I3_out  $end
$upscope $end


$scope module g1206__6417 $end
$var wire      1 3!   A1  $end
$var wire      1 A    A2  $end
$var wire      1 2!   B1  $end
$var wire      1 L    B2  $end
$var wire      1 1!   C1  $end
$var wire      1 6    C2  $end
$var wire      1 $!   Z  $end
$var wire      1 v!   I0_out  $end
$var wire      1 w!   I1_out  $end
$var wire      1 x!   I3_out  $end
$upscope $end


$scope module g1201__5477 $end
$var wire      1 4!   A1  $end
$var wire      1 N    A2  $end
$var wire      1 1!   B1  $end
$var wire      1 -    B2  $end
$var wire      1 2!   C1  $end
$var wire      1 C    C2  $end
$var wire      1 #!   Z  $end
$var wire      1 y!   I0_out  $end
$var wire      1 z!   I1_out  $end
$var wire      1 {!   I3_out  $end
$upscope $end


$scope module g1216__2398 $end
$var wire      1 ~    A1  $end
$var wire      1 "!   A2  $end
$var wire      1 {    A3  $end
$var wire      1 i    A4  $end
$var wire      1 3!   Z  $end
$upscope $end


$scope module g1215__5107 $end
$var wire      1 !!   A1  $end
$var wire      1 "!   A2  $end
$var wire      1 |    A3  $end
$var wire      1 k    A4  $end
$var wire      1 5!   Z  $end
$upscope $end


$scope module g1217__6260 $end
$var wire      1 !!   A1  $end
$var wire      1 "!   A2  $end
$var wire      1 z    A3  $end
$var wire      1 j    A4  $end
$var wire      1 1!   Z  $end
$upscope $end


$scope module g1218__4319 $end
$var wire      1 ~    A1  $end
$var wire      1 "!   A2  $end
$var wire      1 }    A3  $end
$var wire      1 h    A4  $end
$var wire      1 2!   Z  $end
$upscope $end


$scope module g1219__8428 $end
$var wire      1 !!   A1  $end
$var wire      1 ~    A2  $end
$var wire      1 g    A3  $end
$var wire      1 4!   Z  $end
$upscope $end


$scope module g1220__5526 $end
$var wire      1 h    A1  $end
$var wire      1 i    A2  $end
$var wire      1 !!   ZN  $end
$var wire      1 |!   I0_out  $end
$upscope $end


$scope module g1221__6783 $end
$var wire      1 j    A1  $end
$var wire      1 k    A2  $end
$var wire      1 ~    ZN  $end
$var wire      1 }!   I0_out  $end
$upscope $end


$scope module g1223 $end
$var wire      1 i    I  $end
$var wire      1 }    ZN  $end
$upscope $end


$scope module g1225 $end
$var wire      1 j    I  $end
$var wire      1 |    ZN  $end
$upscope $end


$scope module g1222 $end
$var wire      1 h    I  $end
$var wire      1 {    ZN  $end
$upscope $end


$scope module g1226 $end
$var wire      1 k    I  $end
$var wire      1 z    ZN  $end
$upscope $end


$scope module g1224 $end
$var wire      1 g    I  $end
$var wire      1 "!   ZN  $end
$upscope $end

$upscope $end

$upscope $end

$enddefinitions $end
$dumpvars
0!
0"
0#
0$
0%
0&
0'
0(
0)
0*
0+
0,
0-
0.
0/
00
01
02
03
04
05
06
07
08
09
0:
0;
0<
0=
0>
0?
0@
0A
0B
0C
0D
0E
0F
0G
0H
0I
0J
0K
0L
0M
0N
0O
0P
0Q
0R
0S
0T
0U
0V
0W
0X
0Y
0Z
0[
0\
0]
0^
0_
0`
0a
0b
0c
0d
0e
0f
0g
0h
0i
0j
0k
0l
0m
0n
0o
0p
0q
0r
0s
0t
0u
0v
0w
0x
0y
1z
1{
1|
1}
1~
1!!
1"!
0#!
0$!
0%!
0&!
0'!
0(!
0)!
0*!
0+!
0,!
0-!
0.!
0/!
00!
01!
02!
03!
04!
05!
06!
07!
08!
09!
0:!
0;!
0<!
0=!
0>!
0?!
0@!
0A!
0B!
0C!
0D!
0E!
0F!
0G!
0H!
0I!
0J!
0K!
0L!
0M!
0N!
0O!
0P!
0Q!
0R!
0S!
0T!
0U!
0V!
0W!
0X!
0Y!
0Z!
0[!
0\!
0]!
0^!
0_!
0`!
0a!
0b!
0c!
0d!
0e!
0f!
0g!
0h!
0i!
0j!
0k!
0l!
0m!
0n!
0o!
0p!
0q!
0r!
0s!
0t!
0u!
0v!
0w!
0x!
0y!
0z!
0{!
0|!
0}!
$end
$dumpoff
x!
x"
x#
x$
x%
x&
x'
x(
x)
x*
x+
x,
x-
x.
x/
x0
x1
x2
x3
x4
x5
x6
x7
x8
x9
x:
x;
x<
x=
x>
x?
x@
xA
xB
xC
xD
xE
xF
xG
xH
xI
xJ
xK
xL
xM
xN
xO
xP
xQ
xR
xS
xT
xU
xV
xW
xX
xY
xZ
x[
x\
x]
x^
x_
x`
xa
xb
xc
xd
xe
xf
xg
xh
xi
xj
xk
xl
xm
xn
xo
xp
xq
xr
xs
xt
xu
xv
xw
xx
xy
xz
x{
x|
x}
x~
x!!
x"!
x#!
x$!
x%!
x&!
x'!
x(!
x)!
x*!
x+!
x,!
x-!
x.!
x/!
x0!
x1!
x2!
x3!
x4!
x5!
x6!
x7!
x8!
x9!
x:!
x;!
x<!
x=!
x>!
x?!
x@!
xA!
xB!
xC!
xD!
xE!
xF!
xG!
xH!
xI!
xJ!
xK!
xL!
xM!
xN!
xO!
xP!
xQ!
xR!
xS!
xT!
xU!
xV!
xW!
xX!
xY!
xZ!
x[!
x\!
x]!
x^!
x_!
x`!
xa!
xb!
xc!
xd!
xe!
xf!
xg!
xh!
xi!
xj!
xk!
xl!
xm!
xn!
xo!
xp!
xq!
xr!
xs!
xt!
xu!
xv!
xw!
xx!
xy!
xz!
x{!
x|!
x}!
$end
#25000
$dumpon
0!
0"
0#
0$
0%
0&
0'
0(
0)
0*
0+
0,
0-
0.
0/
00
01
02
03
04
05
06
07
08
09
0:
0;
0<
0=
0>
0?
0@
0A
0B
0C
0D
0E
0F
0G
0H
0I
0J
0K
0L
0M
0N
0O
0P
0Q
0R
0S
0T
0U
0V
0W
0X
0Y
0Z
0[
0\
0]
0^
0_
0`
0a
0b
0c
0d
0e
0f
0g
0h
0i
0j
0k
0l
0m
0n
0o
0p
0q
0r
0s
0t
0u
0v
0w
0x
0y
1z
1{
1|
1}
1~
1!!
1"!
0#!
0$!
0%!
0&!
0'!
0(!
0)!
0*!
0+!
0,!
0-!
0.!
0/!
00!
01!
02!
03!
04!
05!
06!
07!
08!
09!
0:!
0;!
0<!
0=!
0>!
0?!
0@!
0A!
0B!
0C!
0D!
0E!
0F!
0G!
0H!
0I!
0J!
0K!
0L!
0M!
0N!
0O!
0P!
0Q!
0R!
0S!
0T!
0U!
0V!
0W!
0X!
0Y!
0Z!
0[!
0\!
0]!
0^!
0_!
0`!
0a!
0b!
0c!
0d!
0e!
0f!
0g!
0h!
0i!
0j!
0k!
0l!
0m!
0n!
0o!
0p!
0q!
0r!
0s!
0t!
0u!
0v!
0w!
0x!
0y!
0z!
0{!
0|!
0}!
$end
1\
1U
1W
1[
1J
1K
1Z
1A
1Y
14
1X
1(
1+
1j
0}!
0~
0|
11!
0p!
0_!
1,!
1&!
1w
1t
#35000
1M
1O
1R
0W
1B
1D
1G
0K
17
19
1<
1?
0A
04
15
16
1!
1#
1&
0(
1)
0+
1U!
0p!
1v!
1$!
0&!
1/!
1v
0t
1u
#45000
0O
0R
1T
0U
1W
0D
0G
1I
0J
1L
09
0<
1>
0?
1A
13
14
0#
0&
1(
0)
1+
0p!
0Q!
1s
1&!
1t
#55000
1Q
1S
1V
1F
1H
1K
1;
1=
1@
11
12
1%
1'
1*
17!
0A!
1q
1r
#65000
0M
1O
0Q
1R
0S
0T
1U
0V
0B
1D
0F
1G
0H
0I
1J
0K
07
19
0;
1<
0=
0>
1?
0@
1/
10
0!
1#
0%
1&
0'
0(
1)
0*
0R!
0m!
1'!
10!
1p
1o
#75000
1M
0O
1P
1Q
0R
0U
0W
1B
0D
1E
1F
0G
0J
0L
17
09
1:
1;
0<
0?
0A
05
06
1!
0#
1$
1%
0&
0)
0+
0U!
0v!
0$!
0/!
0v
0u
#85000
0M
0P
0Q
1U
0B
0E
0F
1J
07
0:
0;
1?
03
04
0!
0$
0%
1)
1Q!
0p!
0&!
0s
0t
#95000
1M
1O
1Q
1R
1B
1D
1F
1G
17
19
1;
1<
01
02
1!
1#
1%
1&
07!
0A!
0q
0r
#105000
0M
1N
1W
0B
1C
1L
07
18
1A
0/
00
0!
1"
1+
0m!
0R!
00!
0'!
0o
0p
#115000
1M
0O
0R
1T
0U
1B
0D
0G
1I
0J
17
09
0<
1>
0?
15
16
1!
0#
0&
1(
0)
1v!
1U!
1/!
1$!
1u
1v
#125000
0M
0N
1O
0T
1U
0B
0C
1D
0I
1J
07
08
19
0>
1?
13
14
0!
0"
1#
0(
1)
0p!
0Q!
1s
1&!
1t
#135000
1N
0O
0Q
1R
0U
0W
1C
0D
0F
1G
0J
0L
18
09
0;
1<
0?
0A
11
12
1"
0#
0%
1&
0)
0+
17!
0A!
1q
1r
#145000
1M
1O
0R
1S
1T
1W
1B
1D
0G
1H
1I
1L
17
19
0<
1=
1>
1A
1/
10
1!
1#
0&
1'
1(
1+
0m!
0R!
10!
1'!
1o
1p
#155000
1Q
1U
1V
0W
1F
1J
1K
0L
1;
1?
1@
0A
05
06
1%
1)
1*
0+
0v!
0U!
0/!
0$!
0u
0v
#165000
0N
1P
0Q
0S
0T
0V
1W
0C
1E
0F
0H
0I
0K
1L
08
1:
0;
0=
0>
0@
1A
03
04
0"
1$
0%
0'
0(
0*
1+
0p!
1Q!
0s
0&!
0t
#175000
0M
0B
07
01
02
0!
07!
0A!
0q
0r
#185000
1M
0O
1Q
1R
1T
0U
1B
0D
1F
1G
1I
0J
17
09
1;
1<
1>
0?
0/
00
1!
0#
1%
1&
1(
0)
0R!
0m!
0'!
00!
0p
0o
#195000
1N
1O
0P
0Q
1S
1V
1C
1D
0E
0F
1H
1K
18
19
0:
0;
1=
1@
15
16
1"
1#
0$
0%
1'
1*
1v!
1U!
1/!
1$!
1u
1v
#205000
0N
1P
0T
0V
0W
0C
1E
0I
0K
0L
08
1:
0>
0@
0A
13
14
0"
1$
0(
0*
0+
0p!
0Q!
1s
1&!
1t
#215000
1N
0R
0S
1T
1U
1V
1C
0G
0H
1I
1J
1K
18
0<
0=
1>
1?
1@
11
12
1"
0&
0'
1(
1)
1*
17!
0A!
1q
1r
#225000
0M
0N
0P
1S
1W
0B
0C
0E
1H
1L
07
08
0:
1=
1A
1/
10
0!
0"
0$
1'
1+
0m!
0R!
10!
1'!
1o
1p
#235000
1M
1N
0O
1P
0S
0T
0U
0V
1B
1C
0D
1E
0H
0I
0J
0K
17
18
09
1:
0=
0>
0?
0@
1,
1-
00
01
02
03
04
05
1!
1"
0#
1$
0'
0(
0)
0*
07!
0A!
0m!
0p!
0Q!
0Z!
1U!
0z!
1#!
0/!
1.!
0s
0&!
0'!
0q
0r
1m
0u
1l
0t
0p
#245000
0\
0M
0N
0P
0W
0[
0B
0C
0E
0L
0Z
07
08
0:
0A
0Y
0,
0-
0/
06
0X
0!
0"
0$
0+
0v!
0R!
0Z!
0z!
0_!
0,!
0#!
0.!
00!
0$!
0w
0m
0l
0o
0v
#315000
1\
1U
1W
1[
1J
1K
1Z
1A
1Y
14
1X
1(
1+
0p!
0_!
1,!
1&!
1w
1t
#325000
1M
1N
1O
1R
0U
1V
1B
1C
1D
1G
0J
1L
17
18
19
1<
1@
04
15
16
1!
1"
1#
1&
0(
1*
1v!
0p!
1U!
1/!
0&!
1$!
1u
0t
1v
#335000
0M
1T
1U
0W
0B
1I
1J
0L
07
1>
1?
0A
13
14
0!
1(
1)
0+
0p!
0Q!
1s
1&!
1t
#345000
0N
0O
1P
1Q
0U
1W
0C
0D
1E
1F
0J
1L
08
09
1:
1;
0?
1A
11
12
0"
0#
1$
1%
0)
1+
17!
0A!
1q
1r
#355000
1N
1O
1S
0T
0W
1C
1D
1H
0I
0L
18
19
1=
0>
0A
1/
10
1"
1#
1'
0(
0+
0m!
0R!
10!
1'!
1o
1p
#365000
0N
0R
0V
0C
0G
0K
08
0<
0@
05
06
0"
0&
0*
0v!
0U!
0/!
0$!
0u
0v
#375000
1M
0O
1T
1V
1W
1B
0D
1I
1K
1L
17
09
1>
1@
1A
03
04
1!
0#
1(
1*
1+
0p!
1Q!
0s
0&!
0t
#385000
1N
1O
0P
0T
1U
0V
1C
1D
0E
0I
1J
0K
18
19
0:
0>
1?
0@
01
02
1"
1#
0$
0(
1)
0*
07!
0A!
0q
0r
#395000
0Q
0U
1V
0W
0F
0J
1K
0L
0;
0?
1@
0A
0/
00
0%
0)
1*
0+
0R!
0m!
0'!
00!
0p
0o
#405000
0M
0N
0O
1P
1Q
0S
1T
1U
0V
1W
0B
0C
0D
1E
1F
0H
1I
1J
0K
1L
07
08
09
1:
1;
0=
1>
1?
0@
1A
15
16
0!
0"
0#
1$
1%
0'
1(
1)
0*
1+
1v!
1U!
1/!
1$!
1u
1v
#415000
1M
1O
0Q
0T
0U
1B
1D
0F
0I
0J
17
19
0;
0>
0?
13
14
1!
1#
0%
0(
0)
0p!
0Q!
1s
1&!
1t
#425000
0M
1N
0O
0P
1S
1T
0W
0B
1C
0D
0E
1H
1I
0L
07
18
09
0:
1=
1>
0A
11
12
0!
1"
0#
0$
1'
1(
0+
17!
0A!
1q
1r
#435000
0N
1O
0T
1U
1W
0C
1D
0I
1J
1L
08
19
0>
1?
1A
1/
10
0"
1#
0(
1)
1+
0m!
0R!
10!
1'!
1o
1p
#445000
1N
0O
1P
1Q
1V
1C
0D
1E
1F
1K
18
09
1:
1;
1@
05
06
1"
0#
1$
1%
1*
0v!
0U!
0/!
0$!
0u
0v
#455000
1M
0P
1T
0U
1B
0E
1I
0J
17
0:
1>
0?
03
04
1!
0$
1(
0)
0p!
1Q!
0s
0&!
0t
#465000
0M
0N
1O
1P
0S
1U
0B
0C
1D
1E
0H
1J
07
08
19
1:
0=
1?
01
02
0!
0"
1#
1$
0'
1)
07!
0A!
0q
0r
#475000
1N
0Q
1S
0U
0W
1C
0F
1H
0J
0L
18
0;
1=
0?
0A
0/
00
1"
0%
1'
0)
0+
0R!
0m!
0'!
00!
0p
0o
#485000
0N
1Q
1R
0T
1U
1W
0C
1F
1G
0I
1J
1L
08
1;
1<
0>
1?
1A
15
16
0"
1%
1&
0(
1)
1+
1U!
1v!
1$!
1/!
1v
1u
#495000
1M
1N
0O
0P
0Q
1T
0W
1B
1C
0D
0E
0F
1I
0L
17
18
09
0:
0;
1>
0A
13
14
1!
1"
0#
0$
0%
1(
0+
0p!
0Q!
1s
1&!
1t
#505000
0M
0N
1Q
0U
0V
1W
0B
0C
1F
0J
0K
1L
07
08
1;
0?
0@
1A
11
12
0!
0"
1%
0)
0*
1+
17!
0A!
1q
1r
#515000
1M
0Q
0S
1U
1V
0W
1B
0F
0H
1J
1K
0L
17
0;
0=
1?
1@
0A
1/
10
1!
0%
0'
1)
1*
0+
0R!
0m!
1'!
10!
1p
1o
#525000
0M
1N
1P
0R
0U
1W
0B
1C
1E
0G
0J
1L
07
18
1:
0<
0?
1A
1-
00
01
02
04
0!
1"
1$
0&
0)
1+
17!
0A!
0m!
0p!
0z!
1#!
0&!
0'!
0q
0r
1m
0t
0p
#535000
0\
0N
0P
0T
0V
0W
0[
0C
0E
0I
0K
0L
0Z
08
0:
0>
0@
0A
0Y
0-
0/
03
05
06
0X
0"
0$
0(
0*
0+
0v!
0Q!
0R!
0U!
0z!
0_!
0,!
0#!
0/!
00!
0s
0$!
0w
0m
0u
0o
0v
#605000
1\
1U
1W
1[
1J
1K
1Z
1A
1Y
14
1X
1(
1+
0p!
0_!
1,!
1&!
1w
1t
#615000
1M
1O
1Q
1R
1S
1T
0U
0W
1B
1D
1F
1G
1H
1I
0J
0K
17
19
1;
1<
1=
1>
0A
04
15
16
1!
1#
1%
1&
1'
0+
1U!
1v!
0p!
0&!
1$!
1/!
0t
1v
1u
#625000
0O
0S
0D
0H
09
0=
13
14
0#
0'
0p!
0Q!
1s
1&!
1t
#635000
1N
1O
1P
1W
1C
1D
1E
1L
18
19
1:
1A
11
12
1"
1#
1$
1+
17!
0A!
1q
1r
#645000
0N
0O
0Q
1S
0T
1V
0W
0C
0D
0F
1H
0I
1K
0L
08
09
0;
1=
0>
1@
0A
1/
10
0"
0#
0%
1'
0(
1*
0+
0R!
0m!
1'!
10!
1p
1o
#655000
0M
0P
0R
0V
0B
0E
0G
0K
07
0:
0<
0@
05
06
0!
0$
0&
0*
0v!
0U!
0/!
0$!
0u
0v
#665000
1N
1O
1Q
0S
1U
1V
1W
1C
1D
1F
0H
1J
1K
1L
18
19
1;
0=
1?
1@
1A
03
04
1"
1#
1%
0'
1)
1*
1+
1Q!
0p!
0&!
0s
0t
#675000
1M
0N
0O
0Q
1R
1S
1T
0U
1B
0C
0D
0F
1G
1H
1I
0J
17
08
09
0;
1<
1=
1>
0?
01
02
1!
0"
0#
0%
1&
1'
1(
0)
07!
0A!
0q
0r
#685000
0M
1O
0W
0B
1D
0L
07
19
0A
0/
00
0!
1#
0+
0m!
0R!
00!
0'!
0o
0p
