sim/mux/dump_mux_25percent_2-1_8BW.vcd
$date
    Jul  6, 2022  18:50:22
$end
$version
    TOOL:	xmsim	19.03-s013
$end
$timescale
    1 ps
$end

$scope module mux_test $end

$scope module mux $end
$var wire      1 !    idata_0 [10] $end
$var wire      1 "    idata_0 [9] $end
$var wire      1 #    idata_0 [8] $end
$var wire      1 $    idata_0 [7] $end
$var wire      1 %    idata_0 [6] $end
$var wire      1 &    idata_0 [5] $end
$var wire      1 '    idata_0 [4] $end
$var wire      1 (    idata_0 [3] $end
$var wire      1 )    idata_0 [2] $end
$var wire      1 *    idata_0 [1] $end
$var wire      1 +    idata_0 [0] $end
$var wire      1 ,    idata_1 [10] $end
$var wire      1 -    idata_1 [9] $end
$var wire      1 .    idata_1 [8] $end
$var wire      1 /    idata_1 [7] $end
$var wire      1 0    idata_1 [6] $end
$var wire      1 1    idata_1 [5] $end
$var wire      1 2    idata_1 [4] $end
$var wire      1 3    idata_1 [3] $end
$var wire      1 4    idata_1 [2] $end
$var wire      1 5    idata_1 [1] $end
$var wire      1 6    idata_1 [0] $end
$var wire      1 7    ivalid_0  $end
$var wire      1 8    ivalid_1  $end
$var wire      1 9    ivch_0 [1] $end
$var wire      1 :    ivch_0 [0] $end
$var wire      1 ;    ivch_1 [1] $end
$var wire      1 <    ivch_1 [0] $end
$var wire      1 =    sel [1] $end
$var wire      1 >    sel [0] $end
$var wire      1 ?    odata [10] $end
$var wire      1 @    odata [9] $end
$var wire      1 A    odata [8] $end
$var wire      1 B    odata [7] $end
$var wire      1 C    odata [6] $end
$var wire      1 D    odata [5] $end
$var wire      1 E    odata [4] $end
$var wire      1 F    odata [3] $end
$var wire      1 G    odata [2] $end
$var wire      1 H    odata [1] $end
$var wire      1 I    odata [0] $end
$var wire      1 J    ovalid  $end
$var wire      1 K    ovch [1] $end
$var wire      1 L    ovch [0] $end
$var wire      1 M    n_12  $end
$var wire      1 N    n_13  $end

$scope module g381__2398 $end
$var wire      1 N    A1  $end
$var wire      1 0    A2  $end
$var wire      1 %    B1  $end
$var wire      1 M    B2  $end
$var wire      1 C    Z  $end
$var wire      1 O    I0_out  $end
$var wire      1 P    I1_out  $end
$upscope $end


$scope module g375__5107 $end
$var wire      1 N    A1  $end
$var wire      1 ;    A2  $end
$var wire      1 9    B1  $end
$var wire      1 M    B2  $end
$var wire      1 K    Z  $end
$var wire      1 Q    I0_out  $end
$var wire      1 R    I1_out  $end
$upscope $end


$scope module g376__6260 $end
$var wire      1 N    A1  $end
$var wire      1 <    A2  $end
$var wire      1 :    B1  $end
$var wire      1 M    B2  $end
$var wire      1 L    Z  $end
$var wire      1 S    I0_out  $end
$var wire      1 T    I1_out  $end
$upscope $end


$scope module g373__4319 $end
$var wire      1 N    A1  $end
$var wire      1 -    A2  $end
$var wire      1 "    B1  $end
$var wire      1 M    B2  $end
$var wire      1 @    Z  $end
$var wire      1 U    I0_out  $end
$var wire      1 V    I1_out  $end
$upscope $end


$scope module g380__8428 $end
$var wire      1 N    A1  $end
$var wire      1 .    A2  $end
$var wire      1 #    B1  $end
$var wire      1 M    B2  $end
$var wire      1 A    Z  $end
$var wire      1 W    I0_out  $end
$var wire      1 X    I1_out  $end
$upscope $end


$scope module g377__5526 $end
$var wire      1 N    A1  $end
$var wire      1 /    A2  $end
$var wire      1 $    B1  $end
$var wire      1 M    B2  $end
$var wire      1 B    Z  $end
$var wire      1 Y    I0_out  $end
$var wire      1 Z    I1_out  $end
$upscope $end


$scope module g378__6783 $end
$var wire      1 N    A1  $end
$var wire      1 ,    A2  $end
$var wire      1 !    B1  $end
$var wire      1 M    B2  $end
$var wire      1 ?    Z  $end
$var wire      1 [    I0_out  $end
$var wire      1 \    I1_out  $end
$upscope $end


$scope module g379__3680 $end
$var wire      1 N    A1  $end
$var wire      1 8    A2  $end
$var wire      1 7    B1  $end
$var wire      1 M    B2  $end
$var wire      1 J    Z  $end
$var wire      1 ]    I0_out  $end
$var wire      1 ^    I1_out  $end
$upscope $end


$scope module g374__1617 $end
$var wire      1 N    A1  $end
$var wire      1 2    A2  $end
$var wire      1 '    B1  $end
$var wire      1 M    B2  $end
$var wire      1 E    Z  $end
$var wire      1 _    I0_out  $end
$var wire      1 `    I1_out  $end
$upscope $end


$scope module g372__2802 $end
$var wire      1 N    A1  $end
$var wire      1 3    A2  $end
$var wire      1 (    B1  $end
$var wire      1 M    B2  $end
$var wire      1 F    Z  $end
$var wire      1 a    I0_out  $end
$var wire      1 b    I1_out  $end
$upscope $end


$scope module g385__1705 $end
$var wire      1 N    A1  $end
$var wire      1 4    A2  $end
$var wire      1 )    B1  $end
$var wire      1 M    B2  $end
$var wire      1 G    Z  $end
$var wire      1 c    I0_out  $end
$var wire      1 d    I1_out  $end
$upscope $end


$scope module g382__5122 $end
$var wire      1 N    A1  $end
$var wire      1 5    A2  $end
$var wire      1 *    B1  $end
$var wire      1 M    B2  $end
$var wire      1 H    Z  $end
$var wire      1 e    I0_out  $end
$var wire      1 f    I1_out  $end
$upscope $end


$scope module g383__8246 $end
$var wire      1 N    A1  $end
$var wire      1 6    A2  $end
$var wire      1 +    B1  $end
$var wire      1 M    B2  $end
$var wire      1 I    Z  $end
$var wire      1 g    I0_out  $end
$var wire      1 h    I1_out  $end
$upscope $end


$scope module g384__7098 $end
$var wire      1 N    A1  $end
$var wire      1 1    A2  $end
$var wire      1 &    B1  $end
$var wire      1 M    B2  $end
$var wire      1 D    Z  $end
$var wire      1 i    I0_out  $end
$var wire      1 j    I1_out  $end
$upscope $end


$scope module g387__6131 $end
$var wire      1 >    A1  $end
$var wire      1 =    B1  $end
$var wire      1 M    ZN  $end
$var wire      1 k    I0_out  $end
$var wire      1 l    I1_out  $end
$upscope $end


$scope module g386__1881 $end
$var wire      1 =    A1  $end
$var wire      1 >    B1  $end
$var wire      1 N    ZN  $end
$var wire      1 m    I0_out  $end
$var wire      1 n    I1_out  $end
$upscope $end

$upscope $end

$upscope $end

$enddefinitions $end
$dumpvars
0!
0"
0#
0$
0%
0&
0'
0(
0)
0*
0+
0,
0-
0.
0/
00
01
02
03
04
05
06
07
08
09
0:
0;
0<
0=
0>
0?
0@
0A
0B
0C
0D
0E
0F
0G
0H
0I
0J
0K
0L
0M
0N
0O
0P
0Q
0R
0S
0T
0U
0V
0W
0X
0Y
0Z
0[
0\
0]
0^
0_
0`
0a
0b
0c
0d
0e
0f
0g
0h
0i
0j
1k
1l
1m
1n
$end
$dumpoff
x!
x"
x#
x$
x%
x&
x'
x(
x)
x*
x+
x,
x-
x.
x/
x0
x1
x2
x3
x4
x5
x6
x7
x8
x9
x:
x;
x<
x=
x>
x?
x@
xA
xB
xC
xD
xE
xF
xG
xH
xI
xJ
xK
xL
xM
xN
xO
xP
xQ
xR
xS
xT
xU
xV
xW
xX
xY
xZ
x[
x\
x]
x^
x_
x`
xa
xb
xc
xd
xe
xf
xg
xh
xi
xj
xk
xl
xm
xn
$end
#25000
$dumpon
0!
0"
0#
0$
0%
0&
0'
0(
0)
0*
0+
0,
0-
0.
0/
00
01
02
03
04
05
06
07
08
09
0:
0;
0<
0=
0>
0?
0@
0A
0B
0C
0D
0E
0F
0G
0H
0I
0J
0K
0L
0M
0N
1O
1P
1Q
1R
0S
0T
0U
0V
0W
0X
0Y
0Z
0[
0\
0]
0^
0_
0`
0a
0b
0c
0d
0e
0f
0g
0h
0i
0j
0k
0l
0m
0n
$end
18
14
17
1(
1+
1=
0m
0n
1N
0d
0^
1J
1G
#35000
04
15
16
1!
1"
1$
0(
0h
0f
0d
0G
1H
1I
#45000
13
14
0"
1'
1(
1)
0+
0d
0b
1F
1G
#55000
11
12
0!
0)
1*
1+
1`
0j
1D
1E
#65000
1/
10
1"
1#
0$
0*
0P
1Z
1B
1C
#75000
05
06
0#
1%
0'
0(
1*
0+
0h
0f
0H
0I
#85000
03
04
1!
0"
1#
0%
1(
1)
0*
1+
1d
0b
0F
0G
#95000
01
02
0!
0#
1$
1'
1*
1`
0j
0D
0E
#105000
0/
00
1"
1#
1&
0'
0(
0)
0*
0P
0Z
0B
0C
#115000
15
16
0"
0#
1'
1(
0+
0h
0f
1H
1I
#125000
13
14
1"
1#
0'
0(
1)
1*
0d
0b
1F
1G
#135000
11
12
0"
0#
0$
1%
0&
1(
0)
1+
1`
0j
1D
1E
#145000
1/
10
1$
0%
0(
1)
0*
0+
0P
1Z
1B
1C
#155000
05
06
1&
1(
1*
0h
0f
0H
0I
#165000
03
04
1!
1"
0$
1%
0(
0*
1+
1d
0b
0F
0G
#175000
01
02
0!
1#
1$
0&
1'
1(
1*
0+
1`
0j
0D
0E
#185000
0/
00
1!
0"
0#
0%
1&
0(
0P
0Z
0B
0C
#195000
15
16
0!
0)
0*
0h
0f
1H
1I
#205000
13
14
1!
1"
1(
1)
1+
0d
0b
1F
1G
#215000
11
12
1#
1%
0&
0'
0(
0+
1`
0j
1D
1E
#225000
1/
10
0#
1'
1(
0)
1+
0P
1Z
1B
1C
#235000
1-
1.
00
03
05
06
0!
1#
0%
1&
0(
1)
0+
1h
1f
0b
0P
0X
0V
1@
1A
0C
0F
0H
0I
#245000
08
0-
0.
0/
01
02
04
07
0"
0#
0$
0&
0'
0)
0d
0`
0j
0Z
0X
0V
0^
0J
0@
0A
0B
0D
0E
0G
#315000
18
14
17
1(
1+
0d
0^
1J
1G
#325000
04
15
16
1!
1"
1#
1%
1&
1'
1*
0h
0f
0d
0G
1H
1I
#335000
13
14
0!
0"
0#
0&
0'
0*
0d
0b
1F
1G
#345000
11
12
1!
1"
1#
0(
1)
1*
0+
1`
0j
1D
1E
#355000
1/
10
0!
0"
1&
0)
1+
0P
1Z
1B
1C
#365000
05
06
1"
0#
1$
0%
1)
0*
0+
0h
0f
0H
0I
#375000
03
04
0"
0&
0)
1d
0b
0F
0G
#385000
01
02
1!
0$
1%
1*
1`
0j
0D
0E
#395000
0/
00
1"
1#
1$
0%
1'
1(
1)
1+
0P
0Z
0B
0C
#405000
15
16
0"
0$
1%
1&
0'
0(
0)
0*
0h
0f
1H
1I
#415000
13
14
0!
0#
0&
1'
1(
1*
0+
0d
0b
1F
1G
#425000
11
12
0%
1&
0'
1`
0j
1D
1E
#435000
1/
10
1!
1"
1#
1%
1'
0*
1+
0P
1Z
1B
1C
#445000
05
06
0"
0%
0&
0'
1)
1*
0+
0h
0f
0H
0I
#455000
03
04
0!
1"
1$
1%
1+
1d
0b
0F
0G
#465000
01
02
0"
0#
0%
1&
1'
0*
0+
1`
0j
0D
0E
#475000
0/
00
1!
1"
1#
0(
0)
1+
0P
0Z
0B
0C
#485000
15
16
0!
0"
0#
1%
1(
1*
0h
0f
1H
1I
#495000
13
14
1!
1"
1#
0$
0&
0'
0(
0*
0d
0b
1F
1G
#505000
11
12
1&
1'
1`
0j
1D
1E
#515000
1/
10
0!
0#
1)
1*
0+
0P
1Z
1B
1C
#525000
1,
0/
00
02
03
1!
0"
0%
0'
1+
1b
1`
0P
1Z
0\
1?
0B
0C
0E
0F
#535000
08
0,
01
04
05
06
07
0!
0&
0)
0*
0+
0h
0f
0d
0j
0\
0^
0J
0?
0D
0G
0H
0I
#605000
18
14
17
1(
1+
0d
0^
1J
1G
#615000
04
15
16
1!
1"
1%
1'
0(
0+
0h
0f
0d
0G
1H
1I
#625000
13
14
1$
1&
1(
1*
0d
0b
1F
1G
#635000
11
12
0!
0"
1#
0$
0%
0&
0(
0*
1+
1`
0j
1D
1E
#645000
1/
10
1!
0#
0'
1(
1)
1*
0+
0P
1Z
1B
1C
#655000
05
06
1"
1'
0*
0h
0f
0H
0I
#665000
03
04
0!
0"
1#
1%
1&
0(
1d
0b
0F
0G
#675000
01
02
1!
1"
0&
0'
1(
1*
1+
1`
0j
0D
0E
#685000
0/
00
0"
0#
0(
0*
0P
0Z
0B
0C
#695000
15
16
0!
1#
0%
1&
1(
0)
0h
0f
1H
1I
#705000
13
14
1!
1"
1%
0&
0d
0b
1F
1G
#715000
11
12
0#
1'
0(
0+
1`
0j
1D
1E
#725000
1/
10
0!
0"
1$
1&
0P
1Z
1B
1C
#735000
05
06
1"
1#
0&
0'
1(
1)
1+
0h
0f
0H
0I
#745000
03
04
1!
0"
0#
0%
1&
0)
0+
1d
0b
0F
0G
#755000
01
02
0!
0$
0&
0(
1*
1`
0j
0D
0E
#765000
0/
00
1"
1%
1'
1(
1)
0*
0P
0Z
0B
0C
#775000
15
16
1!
1$
1&
0'
0)
0h
0f
1H
1I
#785000
13
14
1#
0%
1'
0(
1+
0d
0b
1F
1G
#795000
11
12
0"
0$
0'
1)
1*
0+
1`
0j
1D
1E
#805000
1/
10
0!
1'
1(
0*
0P
1Z
1B
1C
#815000
1,
0/
00
01
02
03
05
06
1!
0#
0&
0'
0(
0h
0f
1b
1`
0j
0P
1Z
0\
1?
0B
0C
0D
0E
0F
0H
0I
#825000
08
0,
04
07
0!
0)
0d
0\
0^
0J
0?
0G
#895000
18
14
17
1(
1+
0d
0^
1J
1G
#905000
04
15
16
1$
1'
0(
1)
1*
0h
0f
0d
0G
1H
1I
#915000
13
14
1!
1#
1%
1&
1(
0)
0*
0+
0d
0b
1F
1G
#925000
11
12
1"
0#
0$
0'
1)
1+
1`
0j
1D
1E
#935000
1/
10
0%
0&
1'
0(
0+
0P
1Z
1B
1C
#945000
05
06
1$
1&
0'
1(
1+
0h
0f
0H
0I
#955000
03
04
0"
1#
0$
0&
1*
1d
0b
0F
0G
#965000
01
02
0!
1"
1$
1%
1&
0(
0)
1`
0j
0D
0E
#975000
0/
00
0"
0#
0$
1'
1)
0*
0+
0P
0Z
0B
0C
#985000
15
16
1"
1$
0%
0&
1*
1+
0h
0f
1H
1I
#995000
13
14
1!
0"
0$
1%
1&
0'
1(
0)
0d
0b
1F
1G
#1005000
11
12
0!
1"
1$
0%
0&
0(
1)
1`
0j
1D
1E
#1015000
1/
10
0$
1%
1'
0P
1Z
1B
1C
#1025000
05
06
1!
0"
1$
0%
0'
0*
0+
0h
0f
0H
0I
#1035000
03
04
0!
1'
1(
0)
1+
1d
0b
0F
0G
#1045000
01
02
0$
1%
0'
0(
1*
0+
1`
0j
0D
0E
#1055000
0/
00
1$
0*
1+
0P
0Z
0B
0C
#1065000
15
16
1"
0$
0%
1&
1(
1)
1*
0h
0f
1H
1I
#1075000
13
14
1!
0"
0&
0(
0d
0b
1F
1G
#1085000
11
12
1(
0)
0*
0+
1`
0j
1D
1E
#1095000
1/
10
1"
1$
1&
1'
1+
0P
1Z
1B
1C
#1105000
1,
1-
1.
01
03
04
05
06
1#
1%
0&
0(
0+
1h
1f
1d
1b
0j
0X
0V
0\
1?
1@
1A
0D
0F
0G
0H
0I
#1115000
08
0,
0-
0.
0/
00
02
07
0!
0"
0#
0$
0%
0'
0`
0P
0Z
0X
0V
0\
0^
0J
0?
0@
0A
0B
0C
0E
#1185000
18
14
17
1(
1+
0d
0^
1J
1G
#1195000
04
15
16
1"
1#
1$
1%
1'
0h
0f
0d
0G
1H
1I
#1205000
13
14
0#
0$
0%
0'
1)
0d
0b
1F
1G
#1215000
11
12
0"
1%
1&
1'
0(
0+
1`
0j
1D
1E
#1225000
1/
10
1"
1#
0%
0'
0)
1+
0P
1Z
1B
1C
#1235000
05
06
0&
1'
1(
1)
1*
0h
0f
0H
0I
#1245000
03
04
1$
1&
0(
0*
0+
1d
0b
0F
0G
#1255000
01
02
0$
0'
1(
1*
1`
0j
0D
0E
#1265000
0/
00
0#
1'
0(
0)
0P
0Z
0B
0C
#1275000
15
16
1$
0'
1(
1)
0*
1+
0h
0f
1H
1I
#1285000
13
14
0"
1#
0$
0)
0d
0b
1F
1G
#1295000
11
12
1!
1"
1%
1'
1`
0j
1D
1E
#1305000
1/
10
0!
0"
0#
0%
0&
1)
0+
0P
1Z
1B
1C
#1315000
05
06
1!
1"
1$
0'
0)
1+
0h
0f
0H
0I
#1325000
03
04
0!
1)
0+
1d
0b
0F
0G
#1335000
01
02
1!
0"
1#
0$
1&
1`
0j
0D
0E
#1345000
0/
00
1$
1%
0&
0)
1+
0P
0Z
0B
0C
#1355000
15
16
0!
1"
0#
0%
1'
0(
1*
0h
0f
1H
1I
#1365000
13
14
1%
1)
0d
0b
1F
1G
#1375000
11
12
1!
0"
1&
0'
0)
0*
1`
0j
1D
1E
#1385000
1/
10
0$
1'
0P
1Z
1B
1C
#1395000
1.
00
02
03
04
0!
1#
1$
0%
0'
1*
1d
0b
1`
0P
1X
1A
0C
0E
0F
0G
#1405000
08
0.
0/
01
05
06
07
0#
0$
0&
0*
0+
0h
0f
0j
0Z
0X
0^
0J
0A
0B
0D
0H
0I
#1475000
18
14
17
1(
1+
0d
0^
1J
1G
#1485000
04
15
16
1#
1$
1&
1'
1*
0h
0f
0d
0G
1H
1I
#1495000
13
14
0$
0&
0(
0d
0b
1F
1G
#1505000
11
12
1!
0#
1$
1)
0*
1`
0j
1D
1E
#1515000
1/
10
0!
0$
1&
1(
0P
1Z
1B
1C
#1525000
05
06
1!
1"
1#
1%
0'
0(
0)
1*
0h
0f
0H
0I
#1535000
03
04
0"
0#
1'
1(
0+
1d
0b
0F
0G
#1545000
01
02
0!
1"
1#
0%
0'
0(
0*
1+
1`
0j
0D
0E
#1555000
0/
00
0#
1$
0&
1(
1*
0P
0Z
0B
0C
#1565000
15
16
1!
0$
1%
1'
0+
0h
0f
1H
1I
#1575000
13
14
0!
0"
1#
1$
0%
0'
1)
1+
0d
0b
1F
1G
#1585000
11
12
1!
0#
0(
1`
0j
1D
1E
#1595000
1/
10
1"
1#
1%
0)
0*
0P
1Z
1B
1C
#1605000
05
06
0#
0%
0h
0f
0H
0I
#1615000
03
04
1#
0$
1&
1)
0+
1d
0b
0F
0G
#1625000
01
02
0"
0#
1$
1%
1'
1(
0)
1+
1`
0j
0D
0E
#1635000
0/
00
0!
1"
1#
0$
0%
0&
0'
1)
1*
0+
0P
0Z
0B
0C
#1645000
15
16
0#
1$
1%
0)
0h
0f
1H
1I
#1655000
13
14
1!
0$
0%
1&
1'
0*
1+
0d
0b
1F
1G
#1665000
11
12
0!
1#
1$
0(
1)
1*
1`
0j
1D
1E
#1675000
1/
10
0"
1%
0&
0'
1(
0)
0+
0P
1Z
1B
1C
#1685000
1,
01
04
05
06
1!
0#
1'
0*
0h
0f
1d
0j
1\
1?
0D
0G
0H
0I
#1695000
08
0,
0/
00
02
03
07
0!
0$
0%
0'
0(
0b
0`
0P
0Z
0\
0^
0J
0?
0B
0C
0E
0F
#1765000
18
14
17
1(
1+
0d
0^
1J
1G
#1775000
04
15
16
1&
1'
1)
1*
0h
0f
0d
0G
1H
1I
#1785000
13
14
1#
1%
0(
0*
0+
0d
0b
1F
1G
#1795000
11
12
1"
1$
0%
0&
1+
1`
0j
1D
1E
#1805000
1/
10
1!
1%
0'
1*
0P
1Z
1B
1C
#1815000
05
06
0"
0#
1(
0+
0h
0f
0H
0I
#1825000
03
04
0!
1"
1#
0%
0(
0)
1d
0b
0F
0G
#1835000
01
02
1!
0"
0#
0$
1&
1(
1)
0*
1+
1`
0j
0D
0E
#1845000
0/
00
1#
1$
1'
0(
0)
0+
0P
0Z
0B
0C
#1855000
15
16
0!
0#
1%
1+
0h
0f
1H
1I
#1865000
13
14
1#
0%
0&
1(
1)
1*
0d
0b
1F
1G
#1875000
11
12
0#
1&
0'
0*
1`
0j
1D
1E
#1885000
1/
10
0$
0&
1'
0(
0P
1Z
1B
1C
#1895000
05
06
1#
0'
1(
0)
1*
0h
0f
0H
0I
#1905000
03
04
1!
1"
0#
1%
1'
1d
0b
0F
0G
#1915000
01
02
1#
1&
1)
0*
1`
0j
0D
0E
#1925000
0/
00
0!
0"
0'
0(
1*
0P
0Z
0B
0C
#1935000
15
16
0#
1$
1'
1(
0)
0h
0f
1H
1I
#1945000
13
14
0$
0%
0*
0d
0b
1F
1G
#1955000
11
12
1!
1$
1%
0&
0'
0(
1`
0j
1D
1E
#1965000
1/
10
0!
1#
0$
0%
1&
1'
1)
0+
0P
1Z
1B
1C
#1975000
1.
00
03
04
05
06
1$
0)
0h
1f
1d
0b
0P
0X
1A
0C
0F
0G
0H
0I
#1985000
08
0.
0/
01
02
07
0#
0$
0&
0'
0`
0j
0Z
0X
0^
0J
0A
0B
0D
0E
#2055000
18
14
17
1(
1+
0d
0^
1J
1G
#2065000
04
15
16
1$
1&
1'
1)
0h
0f
0d
0G
1H
1I
#2075000
13
14
1#
0$
1%
0(
0+
0d
0b
1F
1G
#2085000
11
12
1!
1"
1$
0&
1(
1*
1`
0j
1D
1E
#2095000
1/
10
0"
0$
0(
0)
0*
1+
0P
1Z
1B
1C
#2105000
05
06
1"
0#
1&
0'
1(
1)
1*
0+
0h
0f
0H
0I
#2115000
03
04
0"
1$
0%
1'
0(
1+
1d
0b
0F
0G
#2125000
01
02
0!
1#
0$
1%
0)
1`
0j
0D
0E
#2135000
0/
00
1"
1$
0%
1(
0*
0+
0P
0Z
0B
0C
#2145000
15
16
1%
0'
1)
1*
0h
0f
1H
1I
#2155000
13
14
0"
0$
0&
1'
0(
0)
0d
0b
1F
1G
#2165000
11
12
1$
0%
0'
0*
1`
0j
1D
1E
#2175000
1/
10
1"
0$
1%
1*
1+
0P
1Z
1B
1C
#2185000
05
06
0%
1&
1(
1)
0*
0+
0h
0f
0H
0I
#2195000
03
04
1!
1%
0&
0(
0)
1+
1d
0b
0F
0G
#2205000
01
02
0%
1)
1*
0+
1`
0j
0D
0E
#2215000
0/
00
0!
0#
1%
1(
0)
0P
0Z
0B
0C
#2225000
15
16
0"
1'
0(
1)
0*
0h
0f
1H
1I
#2235000
13
14
1!
1#
1$
0%
0'
0)
1+
0d
0b
1F
1G
#2245000
11
12
0!
0#
0$
1%
1&
1'
1(
1*
1`
0j
1D
1E
#2255000
1/
10
1!
1$
0%
0(
1)
0+
0P
1Z
1B
1C
#2265000
1,
1.
00
02
05
1#
0'
1(
0*
1+
1f
1`
0P
0X
1\
1?
1A
0C
0E
0H
#2275000
08
0,
0.
0/
01
03
04
06
07
0!
0#
0$
0&
0(
0)
0+
0h
0d
0b
0j
0Z
0X
0\
0^
0J
0?
0A
0B
0D
0F
0G
0I
#2345000
18
14
17
1(
1+
0d
0^
1J
1G
#2355000
04
15
16
1#
1%
1)
1*
0+
0h
0f
0d
0G
1H
1I
#2365000
13
14
1!
1"
1$
1&
0*
0d
0b
1F
1G
#2375000
11
12
0!
0#
0%
0(
1+
1`
0j
1D
1E
#2385000
1/
10
1!
1#
0&
1'
0)
0+
0P
1Z
1B
1C
#2395000
05
06
0!
1%
0'
1(
1)
0h
0f
0H
0I
#2405000
03
04
1!
0#
1'
1*
1+
1d
0b
0F
0G
#2415000
01
02
0!
0"
1#
0%
1&
0(
0)
0*
1`
0j
0D
0E
#2425000
0/
00
1!
1"
0#
0$
0'
1(
1*
0P
0Z
0B
0C
#2435000
15
16
0!
0"
1%
0&
1)
0h
0f
1H
1I
#2445000
13
14
1"
1#
1$
1'
0(
0*
0+
0d
0b
1F
1G
#2455000
11
12
0"
0#
0%
1&
0'
1(
0)
1+
1`
0j
1D
1E
#2465000
1/
10
1!
1#
0$
0(
1)
0+
0P
1Z
1B
1C
#2475000
05
06
1"
0#
1'
1*
1+
0h
0f
0H
0I
#2485000
03
04
0"
1#
1%
0'
1(
0*
0+
1d
0b
0F
0G
#2495000
01
02
0!
0#
1$
1'
0)
1`
0j
0D
0E
#2505000
0/
00
1#
0$
0&
0(
1*
1+
0P
0Z
0B
0C
#2515000
15
16
1!
1"
0#
0%
0'
1(
1)
0*
0+
0h
0f
1H
1I
#2525000
13
14
0"
1#
1&
1'
0)
1+
0d
0b
1F
1G
#2535000
11
12
0!
1"
1$
0&
0'
1)
1*
0+
1`
0j
1D
1E
#2545000
1/
10
0"
0#
0$
1&
0*
1+
0P
1Z
1B
1C
#2555000
1,
1-
1.
0/
00
01
02
04
05
06
1!
1"
1#
0&
0)
0+
1h
1f
0d
1`
0j
0P
0Z
0X
0V
1\
1?
1@
1A
0B
0C
0D
0E
0G
0H
0I
#2565000
08
0,
0-
0.
03
07
0!
0"
0#
0(
0b
0X
0V
0\
0^
0J
0?
0@
0A
0F
#2635000
18
14
17
1(
1+
0d
0^
1J
1G
#2645000
04
15
16
1"
1#
1$
1*
0+
0h
0f
0d
0G
1H
1I
#2655000
13
14
1!
0"
0$
1%
1&
1)
1+
0d
0b
1F
1G
#2665000
11
12
0!
1$
0%
1`
0j
1D
1E
#2675000
1/
10
1"
0#
0$
1'
0)
0P
1Z
1B
1C
#2685000
05
06
1!
1#
0&
1)
0h
0f
0H
0I
#2695000
03
04
0!
1$
0'
0(
0)
1d
0b
0F
0G
#2705000
01
02
1!
0"
0#
0$
1%
1&
1'
0*
0+
1`
0j
0D
0E
#2715000
0/
00
0!
1$
1(
1*
1+
0P
0Z
0B
0C
#2725000
15
16
1#
0$
0%
0&
0'
0(
0+
0h
0f
1H
1I
#2735000
13
14
1"
1$
0*
1+
0d
0b
1F
1G
#2745000
11
12
1!
1&
1(
1)
1*
0+
1`
0j
1D
1E
#2755000
1/
10
0#
0*
1+
0P
1Z
1B
1C
#2765000
05
06
1#
0$
1%
0)
0h
0f
0H
0I
#2775000
03
04
0"
0#
0%
0&
0(
1d
0b
0F
0G
#2785000
01
02
1"
1%
1&
1'
1)
1*
0+
1`
0j
0D
0E
#2795000
0/
00
0%
0*
0P
0Z
0B
0C
#2805000
15
16
0!
1#
1%
0'
0)
1+
0h
0f
1H
1I
#2815000
13
14
1!
1$
0%
1'
1(
1*
0+
0d
0b
1F
1G
#2825000
11
12
0!
1%
0'
0(
0*
1+
1`
0j
1D
1E
#2835000
1/
10
0"
0#
0%
0&
0+
0P
1Z
1B
1C
#2845000
1,
0/
02
03
04
05
1!
0$
1%
1&
1+
0f
0d
1b
1`
0Z
0\
1?
0B
0E
0F
0G
0H
#2855000
08
0,
00
01
06
07
0!
0%
0&
0+
0h
0j
0P
0\
0^
0J
0?
0C
0D
0I
#2935000
$dumpoff
x!
x"
x#
x$
x%
x&
x'
x(
x)
x*
x+
x,
x-
x.
x/
x0
x1
x2
x3
x4
x5
x6
x7
x8
x9
x:
x;
x<
x=
x>
x?
x@
xA
xB
xC
xD
xE
xF
xG
xH
xI
xJ
xK
xL
xM
xN
xO
xP
xQ
xR
xS
xT
xU
xV
xW
xX
xY
xZ
x[
x\
x]
x^
x_
x`
xa
xb
xc
xd
xe
xf
xg
xh
xi
xj
xk
xl
xm
xn
$end
