sim/mux/dump_mux_inputpattern.vcd
$date
    Jul  1, 2022  10:47:00
$end
$version
    TOOL:	xmsim	19.03-s013
$end
$timescale
    10 ps
$end

$scope module mux_test $end

$scope module mux $end
$var wire     67 !    idata_0 [66:0] $end
$var wire      1 "    ivalid_0  $end
$var wire      2 #    ivch_0 [1:0] $end
$var wire     67 $    idata_1 [66:0] $end
$var wire      1 %    ivalid_1  $end
$var wire      2 &    ivch_1 [1:0] $end
$var wire     67 '    idata_2 [66:0] $end
$var wire      1 (    ivalid_2  $end
$var wire      2 )    ivch_2 [1:0] $end
$var wire     67 *    idata_3 [66:0] $end
$var wire      1 +    ivalid_3  $end
$var wire      2 ,    ivch_3 [1:0] $end
$var wire     67 -    idata_4 [66:0] $end
$var wire      1 .    ivalid_4  $end
$var wire      2 /    ivch_4 [1:0] $end
$var wire      5 0    sel [4:0] $end
$var wire     67 1    odata [66:0] $end
$var wire      1 2    ovalid  $end
$var wire      2 3    ovch [1:0] $end
$upscope $end

$upscope $end

$enddefinitions $end
$dumpvars
b0 !
0"
b0 #
b0 $
0%
b0 &
b0 '
0(
b0 )
b0 *
0+
b0 ,
b0 -
0.
b0 /
b0 0
b0 1
02
b0 3
$end
$dumpoff
bx !
x"
bx #
bx $
x%
bx &
bx '
x(
bx )
bx *
x+
bx ,
bx -
x.
bx /
bx 0
bx 1
x2
bx 3
$end
#2500
$dumpon
b0 !
0"
b0 #
b0 $
0%
b0 &
b0 '
0(
b0 )
b0 *
0+
b0 ,
b0 -
0.
b0 /
b0 0
b0 1
02
b0 3
$end
1.
1+
1(
1%
1"
b10000000000000000000000000000000000000000000000000000000000001001 !
b1 0
b10000000000000000000000000000000000000000000000000000000000001001 1
12
#3500
b1000001001000010101001101010010010011000000100010010101111010000001 !
b1000001001000010101001101010010010011000000100010010101111010000001 1
#4500
b1001000010010000101111001000000100111001110010010001100110010011100 !
b1001000010010000101111001000000100111001110010010001100110010011100 1
#5500
b1011 $
b1000001001000010101001101010010010011000000100010010101111010000001 !
b10 0
b1011 1
#6500
b11111011 '
b0 $
b100 0
b11111011 1
#7500
b1010101011 *
b0 '
b1000 0
b1010101011 1
#8500
b1010111011 -
b0 *
b10000 0
b1010111011 1
#9500
b0 -
b1011 '
b1011 $
b0 0
02
b0 1
#10500
b1 0
b1000001001000010101001101010010010011000000100010010101111010000001 1
12
#12500
b0 0
b0 1
02
