sim/mux/dump_mux_25percent_3-1_8BW.vcd
$date
    Jul  6, 2022  18:48:47
$end
$version
    TOOL:	xmsim	19.03-s013
$end
$timescale
    1 ps
$end

$scope module mux_test $end

$scope module mux $end
$var wire      1 !    idata_0 [10] $end
$var wire      1 "    idata_0 [9] $end
$var wire      1 #    idata_0 [8] $end
$var wire      1 $    idata_0 [7] $end
$var wire      1 %    idata_0 [6] $end
$var wire      1 &    idata_0 [5] $end
$var wire      1 '    idata_0 [4] $end
$var wire      1 (    idata_0 [3] $end
$var wire      1 )    idata_0 [2] $end
$var wire      1 *    idata_0 [1] $end
$var wire      1 +    idata_0 [0] $end
$var wire      1 ,    idata_1 [10] $end
$var wire      1 -    idata_1 [9] $end
$var wire      1 .    idata_1 [8] $end
$var wire      1 /    idata_1 [7] $end
$var wire      1 0    idata_1 [6] $end
$var wire      1 1    idata_1 [5] $end
$var wire      1 2    idata_1 [4] $end
$var wire      1 3    idata_1 [3] $end
$var wire      1 4    idata_1 [2] $end
$var wire      1 5    idata_1 [1] $end
$var wire      1 6    idata_1 [0] $end
$var wire      1 7    idata_2 [10] $end
$var wire      1 8    idata_2 [9] $end
$var wire      1 9    idata_2 [8] $end
$var wire      1 :    idata_2 [7] $end
$var wire      1 ;    idata_2 [6] $end
$var wire      1 <    idata_2 [5] $end
$var wire      1 =    idata_2 [4] $end
$var wire      1 >    idata_2 [3] $end
$var wire      1 ?    idata_2 [2] $end
$var wire      1 @    idata_2 [1] $end
$var wire      1 A    idata_2 [0] $end
$var wire      1 B    ivalid_0  $end
$var wire      1 C    ivalid_1  $end
$var wire      1 D    ivalid_2  $end
$var wire      1 E    ivch_0 [1] $end
$var wire      1 F    ivch_0 [0] $end
$var wire      1 G    ivch_1 [1] $end
$var wire      1 H    ivch_1 [0] $end
$var wire      1 I    ivch_2 [1] $end
$var wire      1 J    ivch_2 [0] $end
$var wire      1 K    sel [2] $end
$var wire      1 L    sel [1] $end
$var wire      1 M    sel [0] $end
$var wire      1 N    odata [10] $end
$var wire      1 O    odata [9] $end
$var wire      1 P    odata [8] $end
$var wire      1 Q    odata [7] $end
$var wire      1 R    odata [6] $end
$var wire      1 S    odata [5] $end
$var wire      1 T    odata [4] $end
$var wire      1 U    odata [3] $end
$var wire      1 V    odata [2] $end
$var wire      1 W    odata [1] $end
$var wire      1 X    odata [0] $end
$var wire      1 Y    ovalid  $end
$var wire      1 Z    ovch [1] $end
$var wire      1 [    ovch [0] $end
$var wire      1 \    n_0  $end
$var wire      1 ]    n_1  $end
$var wire      1 ^    n_15  $end
$var wire      1 _    n_17  $end
$var wire      1 `    n_65  $end

$scope module g671__2398 $end
$var wire      1 ^    A1  $end
$var wire      1 2    A2  $end
$var wire      1 `    B1  $end
$var wire      1 '    B2  $end
$var wire      1 _    C1  $end
$var wire      1 =    C2  $end
$var wire      1 T    Z  $end
$var wire      1 a    I0_out  $end
$var wire      1 b    I1_out  $end
$var wire      1 c    I3_out  $end
$upscope $end


$scope module g660__5107 $end
$var wire      1 _    A1  $end
$var wire      1 8    A2  $end
$var wire      1 `    B1  $end
$var wire      1 "    B2  $end
$var wire      1 ^    C1  $end
$var wire      1 -    C2  $end
$var wire      1 O    Z  $end
$var wire      1 d    I0_out  $end
$var wire      1 e    I1_out  $end
$var wire      1 f    I3_out  $end
$upscope $end


$scope module g667__6260 $end
$var wire      1 ^    A1  $end
$var wire      1 .    A2  $end
$var wire      1 `    B1  $end
$var wire      1 #    B2  $end
$var wire      1 _    C1  $end
$var wire      1 9    C2  $end
$var wire      1 P    Z  $end
$var wire      1 g    I0_out  $end
$var wire      1 h    I1_out  $end
$var wire      1 i    I3_out  $end
$upscope $end


$scope module g661__4319 $end
$var wire      1 _    A1  $end
$var wire      1 :    A2  $end
$var wire      1 `    B1  $end
$var wire      1 $    B2  $end
$var wire      1 ^    C1  $end
$var wire      1 /    C2  $end
$var wire      1 Q    Z  $end
$var wire      1 j    I0_out  $end
$var wire      1 k    I1_out  $end
$var wire      1 l    I3_out  $end
$upscope $end


$scope module g664__8428 $end
$var wire      1 ^    A1  $end
$var wire      1 0    A2  $end
$var wire      1 `    B1  $end
$var wire      1 %    B2  $end
$var wire      1 _    C1  $end
$var wire      1 ;    C2  $end
$var wire      1 R    Z  $end
$var wire      1 m    I0_out  $end
$var wire      1 n    I1_out  $end
$var wire      1 o    I3_out  $end
$upscope $end


$scope module g668__5526 $end
$var wire      1 ^    A1  $end
$var wire      1 1    A2  $end
$var wire      1 `    B1  $end
$var wire      1 &    B2  $end
$var wire      1 _    C1  $end
$var wire      1 <    C2  $end
$var wire      1 S    Z  $end
$var wire      1 p    I0_out  $end
$var wire      1 q    I1_out  $end
$var wire      1 r    I3_out  $end
$upscope $end


$scope module g665__6783 $end
$var wire      1 ^    A1  $end
$var wire      1 ,    A2  $end
$var wire      1 `    B1  $end
$var wire      1 !    B2  $end
$var wire      1 _    C1  $end
$var wire      1 7    C2  $end
$var wire      1 N    Z  $end
$var wire      1 s    I0_out  $end
$var wire      1 t    I1_out  $end
$var wire      1 u    I3_out  $end
$upscope $end


$scope module g666__3680 $end
$var wire      1 ^    A1  $end
$var wire      1 H    A2  $end
$var wire      1 `    B1  $end
$var wire      1 F    B2  $end
$var wire      1 _    C1  $end
$var wire      1 J    C2  $end
$var wire      1 [    Z  $end
$var wire      1 v    I0_out  $end
$var wire      1 w    I1_out  $end
$var wire      1 x    I3_out  $end
$upscope $end


$scope module g663__1617 $end
$var wire      1 _    A1  $end
$var wire      1 ?    A2  $end
$var wire      1 `    B1  $end
$var wire      1 )    B2  $end
$var wire      1 ^    C1  $end
$var wire      1 4    C2  $end
$var wire      1 V    Z  $end
$var wire      1 y    I0_out  $end
$var wire      1 z    I1_out  $end
$var wire      1 {    I3_out  $end
$upscope $end


$scope module g659__2802 $end
$var wire      1 _    A1  $end
$var wire      1 @    A2  $end
$var wire      1 `    B1  $end
$var wire      1 *    B2  $end
$var wire      1 ^    C1  $end
$var wire      1 5    C2  $end
$var wire      1 W    Z  $end
$var wire      1 |    I0_out  $end
$var wire      1 }    I1_out  $end
$var wire      1 ~    I3_out  $end
$upscope $end


$scope module g672__1705 $end
$var wire      1 _    A1  $end
$var wire      1 A    A2  $end
$var wire      1 `    B1  $end
$var wire      1 +    B2  $end
$var wire      1 ^    C1  $end
$var wire      1 6    C2  $end
$var wire      1 X    Z  $end
$var wire      1 !!   I0_out  $end
$var wire      1 "!   I1_out  $end
$var wire      1 #!   I3_out  $end
$upscope $end


$scope module g669__5122 $end
$var wire      1 ^    A1  $end
$var wire      1 C    A2  $end
$var wire      1 `    B1  $end
$var wire      1 B    B2  $end
$var wire      1 _    C1  $end
$var wire      1 D    C2  $end
$var wire      1 Y    Z  $end
$var wire      1 $!   I0_out  $end
$var wire      1 %!   I1_out  $end
$var wire      1 &!   I3_out  $end
$upscope $end


$scope module g670__8246 $end
$var wire      1 _    A1  $end
$var wire      1 I    A2  $end
$var wire      1 `    B1  $end
$var wire      1 E    B2  $end
$var wire      1 ^    C1  $end
$var wire      1 G    C2  $end
$var wire      1 Z    Z  $end
$var wire      1 '!   I0_out  $end
$var wire      1 (!   I1_out  $end
$var wire      1 )!   I3_out  $end
$upscope $end


$scope module g662__7098 $end
$var wire      1 _    A1  $end
$var wire      1 >    A2  $end
$var wire      1 `    B1  $end
$var wire      1 (    B2  $end
$var wire      1 ^    C1  $end
$var wire      1 3    C2  $end
$var wire      1 U    Z  $end
$var wire      1 *!   I0_out  $end
$var wire      1 +!   I1_out  $end
$var wire      1 ,!   I3_out  $end
$upscope $end


$scope module g675__6131 $end
$var wire      1 ]    A1  $end
$var wire      1 M    A2  $end
$var wire      1 _    ZN  $end
$var wire      1 -!   I0_out  $end
$upscope $end


$scope module g674__1881 $end
$var wire      1 \    A1  $end
$var wire      1 M    A2  $end
$var wire      1 ^    ZN  $end
$var wire      1 .!   I0_out  $end
$upscope $end


$scope module g677__4733 $end
$var wire      1 L    A1  $end
$var wire      1 K    B1  $end
$var wire      1 ]    ZN  $end
$var wire      1 /!   I0_out  $end
$var wire      1 0!   I1_out  $end
$upscope $end


$scope module g678__6161 $end
$var wire      1 K    A1  $end
$var wire      1 L    B1  $end
$var wire      1 \    ZN  $end
$var wire      1 1!   I0_out  $end
$var wire      1 2!   I1_out  $end
$upscope $end


$scope module g2 $end
$var wire      1 M    A1  $end
$var wire      1 K    B1  $end
$var wire      1 L    B2  $end
$var wire      1 `    ZN  $end
$var wire      1 3!   I0_out  $end
$var wire      1 4!   I2_out  $end
$upscope $end

$upscope $end

$upscope $end

$enddefinitions $end
$dumpvars
0!
0"
0#
0$
0%
0&
0'
0(
0)
0*
0+
0,
0-
0.
0/
00
01
02
03
04
05
06
07
08
09
0:
0;
0<
0=
0>
0?
0@
0A
0B
0C
0D
0E
0F
0G
0H
0I
0J
0K
0L
0M
0N
0O
0P
0Q
0R
0S
0T
0U
0V
0W
0X
0Y
0Z
0[
1\
1]
0^
0_
0`
0a
0b
0c
0d
0e
0f
0g
0h
0i
0j
0k
0l
0m
0n
0o
0p
0q
0r
0s
0t
0u
0v
0w
0x
0y
0z
0{
0|
0}
0~
0!!
0"!
0#!
0$!
0%!
0&!
0'!
0(!
0)!
0*!
0+!
0,!
1-!
1.!
1/!
00!
11!
02!
13!
14!
$end
$dumpoff
x!
x"
x#
x$
x%
x&
x'
x(
x)
x*
x+
x,
x-
x.
x/
x0
x1
x2
x3
x4
x5
x6
x7
x8
x9
x:
x;
x<
x=
x>
x?
x@
xA
xB
xC
xD
xE
xF
xG
xH
xI
xJ
xK
xL
xM
xN
xO
xP
xQ
xR
xS
xT
xU
xV
xW
xX
xY
xZ
x[
x\
x]
x^
x_
x`
xa
xb
xc
xd
xe
xf
xg
xh
xi
xj
xk
xl
xm
xn
xo
xp
xq
xr
xs
xt
xu
xv
xw
xx
xy
xz
x{
x|
x}
x~
x!!
x"!
x#!
x$!
x%!
x&!
x'!
x(!
x)!
x*!
x+!
x,!
x-!
x.!
x/!
x0!
x1!
x2!
x3!
x4!
$end
#25000
$dumpon
0!
0"
0#
0$
0%
0&
0'
0(
0)
0*
0+
0,
0-
0.
0/
00
01
02
03
04
05
06
07
08
09
0:
0;
0<
0=
0>
0?
0@
0A
0B
0C
0D
0E
0F
0G
0H
0I
0J
0K
0L
0M
0N
0O
0P
0Q
0R
0S
0T
0U
0V
0W
0X
0Y
0Z
0[
1\
1]
0^
0_
0`
0a
0b
0c
0d
0e
0f
0g
0h
0i
0j
0k
0l
0m
0n
0o
0p
0q
0r
0s
0t
0u
0v
0w
0x
0y
0z
0{
0|
0}
0~
0!!
0"!
0#!
0$!
0%!
0&!
0'!
0(!
0)!
0*!
0+!
0,!
1-!
1.!
1/!
10!
11!
02!
13!
04!
$end
1D
1A
1C
14
1B
1(
1+
1L
1/!
12!
0\
1.!
1^
0y
0&!
1Y
1V
#35000
17
18
1:
04
15
16
1!
1"
1$
0(
0!!
0|
0y
0V
1W
1X
#45000
08
1=
1>
1?
0A
13
14
0"
1'
1(
1)
0+
0y
0*!
1U
1V
#55000
07
0?
1@
1A
11
12
0!
0)
1*
1+
0c
0r
1S
1T
#65000
18
19
0:
0@
1/
10
1"
1#
0$
0*
0o
1j
1Q
1R
#75000
09
1;
0=
0>
1@
0A
05
06
0#
1%
0'
0(
1*
0+
1!!
0|
0W
0X
#85000
17
08
19
0;
1>
1?
0@
1A
03
04
1!
0"
1#
0%
1(
1)
0*
1+
0y
0*!
0U
0V
#95000
07
09
1:
1=
1@
01
02
0!
0#
1$
1'
1*
0r
0c
0T
0S
#105000
18
19
1<
0=
0>
0?
0@
0/
00
1"
1#
1&
0'
0(
0)
0*
0o
0j
0Q
0R
#115000
08
09
1=
1>
0A
15
16
0"
0#
1'
1(
0+
0|
0!!
1X
1W
#125000
18
19
0=
0>
1?
1@
13
14
1"
1#
0'
0(
1)
1*
0y
0*!
1U
1V
#135000
08
09
0:
1;
0<
1>
0?
1A
11
12
0"
0#
0$
1%
0&
1(
0)
1+
0c
0r
1S
1T
#145000
1:
0;
0>
1?
0@
0A
1/
10
1$
0%
0(
1)
0*
0+
0o
1j
1Q
1R
#155000
1<
1>
1@
05
06
1&
1(
1*
1!!
0|
0W
0X
#165000
17
18
0:
1;
0>
0@
1A
03
04
1!
1"
0$
1%
0(
0*
1+
0y
0*!
0U
0V
#175000
07
19
1:
0<
1=
1>
1@
0A
01
02
0!
1#
1$
0&
1'
1(
1*
0+
0c
0r
0S
0T
#185000
17
08
09
0;
1<
0>
0/
00
1!
0"
0#
0%
1&
0(
0j
0o
0R
0Q
#195000
07
0?
0@
15
16
0!
0)
0*
0!!
0|
1W
1X
#205000
17
18
1>
1?
1A
13
14
1!
1"
1(
1)
1+
0y
0*!
1U
1V
#215000
19
1;
0<
0=
0>
0A
11
12
1#
1%
0&
0'
0(
0+
0c
0r
1S
1T
#225000
09
1=
1>
0?
1A
1/
10
0#
1'
1(
0)
1+
0o
1j
1Q
1R
#235000
07
19
0;
1<
0>
1?
0A
1-
1.
00
03
05
06
0!
1#
0%
1&
0(
1)
0+
0|
0d
1!!
0*!
0o
1i
1P
0R
0U
0X
1O
0W
#245000
0D
08
09
0:
0<
0=
0?
0C
0-
0.
0/
01
02
04
0B
0"
0#
0$
0&
0'
0)
0y
0c
0r
0j
0i
0d
0&!
0Y
0O
0P
0Q
0S
0T
0V
#315000
1D
1A
1C
14
1B
1(
1+
0y
0&!
1Y
1V
#325000
17
18
19
1;
1<
1=
1>
1@
04
15
16
1!
1"
1#
1%
1&
1'
1*
0!!
0y
0|
1W
0V
1X
#335000
07
08
09
0<
0=
0@
13
14
0!
0"
0#
0&
0'
0*
0y
0*!
1U
1V
#345000
17
18
19
0>
1?
1@
0A
11
12
1!
1"
1#
0(
1)
1*
0+
0c
0r
1S
1T
#355000
07
08
1<
0?
1A
1/
10
0!
0"
1&
0)
1+
0o
1j
1Q
1R
#365000
18
09
1:
0;
1?
0@
0A
05
06
1"
0#
1$
0%
1)
0*
0+
1!!
0|
0W
0X
#375000
08
0<
0?
03
04
0"
0&
0)
0*!
0y
0V
0U
#385000
17
0:
1;
1@
01
02
1!
0$
1%
1*
0c
0r
0S
0T
#395000
18
19
1:
0;
1=
1>
1?
1A
0/
00
1"
1#
1$
0%
1'
1(
1)
1+
0o
0j
0Q
0R
#405000
08
0:
1;
1<
0=
0>
0?
0@
15
16
0"
0$
1%
1&
0'
0(
0)
0*
0!!
0|
1W
1X
#415000
07
09
0<
1=
1>
1@
0A
13
14
0!
0#
0&
1'
1(
1*
0+
0y
0*!
1U
1V
#425000
0;
1<
0=
11
12
0%
1&
0'
0c
0r
1S
1T
#435000
17
18
19
1;
1=
0@
1A
1/
10
1!
1"
1#
1%
1'
0*
1+
1j
0o
1R
1Q
#445000
08
0;
0<
0=
1?
1@
0A
05
06
0"
0%
0&
0'
1)
1*
0+
1!!
0|
0W
0X
#455000
07
18
1:
1;
1A
03
04
0!
1"
1$
1%
1+
0y
0*!
0U
0V
#465000
08
09
0;
1<
1=
0@
0A
01
02
0"
0#
0%
1&
1'
0*
0+
0c
0r
0S
0T
#475000
17
18
19
0>
0?
1A
0/
00
1!
1"
1#
0(
0)
1+
0o
0j
0Q
0R
#485000
07
08
09
1;
1>
1@
15
16
0!
0"
0#
1%
1(
1*
0!!
0|
1W
1X
#495000
17
18
19
0:
0<
0=
0>
0@
13
14
1!
1"
1#
0$
0&
0'
0(
0*
0y
0*!
1U
1V
#505000
1<
1=
11
12
1&
1'
0c
0r
1S
1T
#515000
07
09
1?
1@
0A
1/
10
0!
0#
1)
1*
0+
0o
1j
1Q
1R
#525000
17
08
0;
0=
1A
1,
0/
00
02
03
1!
0"
0%
0'
1+
0*!
1j
0c
0o
0u
1N
0R
0T
0Q
0U
#535000
0D
07
0<
0?
0@
0A
0C
0,
01
04
05
06
0B
0!
0&
0)
0*
0+
0!!
0|
0y
0r
0u
0&!
0Y
0N
0S
0V
0W
0X
#605000
1D
1A
1C
14
1B
1(
1+
0y
0&!
1Y
1V
#615000
17
18
1;
1=
0A
04
15
16
1!
1"
1%
1'
0(
0+
0|
0y
0!!
1X
0V
1W
#625000
1:
1<
1>
1@
13
14
1$
1&
1(
1*
0y
0*!
1U
1V
#635000
07
08
19
0:
0;
0<
0>
0@
1A
11
12
0!
0"
1#
0$
0%
0&
0(
0*
1+
0c
0r
1S
1T
#645000
17
09
0=
1>
1?
1@
0A
1/
10
1!
0#
0'
1(
1)
1*
0+
0o
1j
1Q
1R
#655000
18
1=
0@
05
06
1"
1'
0*
1!!
0|
0W
0X
#665000
07
08
19
1;
1<
0>
03
04
0!
0"
1#
1%
1&
0(
0y
0*!
0U
0V
#675000
17
18
0<
0=
1>
1@
1A
01
02
1!
1"
0&
0'
1(
1*
1+
0c
0r
0S
0T
#685000
08
09
0>
0@
0/
00
0"
0#
0(
0*
0o
0j
0Q
0R
#695000
07
19
0;
1<
1>
0?
15
16
0!
1#
0%
1&
1(
0)
0!!
0|
1W
1X
#705000
17
18
1;
0<
13
14
1!
1"
1%
0&
0y
0*!
1U
1V
#715000
09
1=
0>
0A
11
12
0#
1'
0(
0+
0r
0c
1T
1S
#725000
07
08
1:
1<
1/
10
0!
0"
1$
1&
0o
1j
1Q
1R
#735000
18
19
0<
0=
1>
1?
1A
05
06
1"
1#
0&
0'
1(
1)
1+
0|
1!!
0X
0W
#745000
17
08
09
0;
1<
0?
0A
03
04
1!
0"
0#
0%
1&
0)
0+
0*!
0y
0V
0U
#755000
07
0:
0<
0>
1@
01
02
0!
0$
0&
0(
1*
0c
0r
0S
0T
#765000
18
1;
1=
1>
1?
0@
0/
00
1"
1%
1'
1(
1)
0*
0j
0o
0R
0Q
#775000
17
1:
1<
0=
0?
15
16
1!
1$
1&
0'
0)
0!!
0|
1W
1X
#785000
19
0;
1=
0>
1A
13
14
1#
0%
1'
0(
1+
0y
0*!
1U
1V
#795000
08
0:
0=
1?
1@
0A
11
12
0"
0$
0'
1)
1*
0+
0r
0c
1T
1S
#805000
07
1=
1>
0@
1/
10
0!
1'
1(
0*
0o
1j
1Q
1R
#815000
17
09
0<
0=
0>
1,
0/
00
01
02
03
05
06
1!
0#
0&
0'
0(
0!!
0|
0o
0j
0*!
0c
0r
0u
1N
0S
0T
0U
0Q
0R
0W
0X
#825000
0D
07
0?
0C
0,
04
0B
0!
0)
0y
0u
0&!
0Y
0N
0V
#895000
1D
1A
1C
14
1B
1(
1+
0y
0&!
1Y
1V
#905000
1:
1=
1?
1@
04
15
16
1$
1'
0(
1)
1*
0!!
0|
0y
0V
1W
1X
#915000
17
19
1;
1<
1>
0?
0@
0A
13
14
1!
1#
1%
1&
1(
0)
0*
0+
0y
0*!
1U
1V
#925000
18
09
0:
0=
1?
1A
11
12
1"
0#
0$
0'
1)
1+
0r
0c
1T
1S
#935000
0;
0<
1=
0>
0A
1/
10
0%
0&
1'
0(
0+
1j
0o
1R
1Q
#945000
1:
1<
0=
1>
1A
05
06
1$
1&
0'
1(
1+
0|
1!!
0X
0W
#955000
08
19
0:
0<
1@
03
04
0"
1#
0$
0&
1*
0y
0*!
0U
0V
#965000
07
18
1:
1;
1<
0>
0?
01
02
0!
1"
1$
1%
1&
0(
0)
0c
0r
0S
0T
#975000
08
09
0:
1=
1?
0@
0A
0/
00
0"
0#
0$
1'
1)
0*
0+
0o
0j
0Q
0R
#985000
18
1:
0;
0<
1@
1A
15
16
1"
1$
0%
0&
1*
1+
0!!
0|
1W
1X
#995000
17
08
0:
1;
1<
0=
1>
0?
13
14
1!
0"
0$
1%
1&
0'
1(
0)
0y
0*!
1U
1V
#1005000
07
18
1:
0;
0<
0>
1?
11
12
0!
1"
1$
0%
0&
0(
1)
0c
0r
1S
1T
#1015000
0:
1;
1=
1/
10
0$
1%
1'
0o
1j
1Q
1R
#1025000
17
08
1:
0;
0=
0@
0A
05
06
1!
0"
1$
0%
0'
0*
0+
1!!
0|
0W
0X
#1035000
07
1=
1>
0?
1A
03
04
0!
1'
1(
0)
1+
0y
0*!
0U
0V
#1045000
0:
1;
0=
0>
1@
0A
01
02
0$
1%
0'
0(
1*
0+
0r
0c
0T
0S
#1055000
1:
0@
1A
0/
00
1$
0*
1+
0o
0j
0Q
0R
#1065000
18
0:
0;
1<
1>
1?
1@
15
16
1"
0$
0%
1&
1(
1)
1*
0!!
0|
1W
1X
#1075000
17
08
0<
0>
13
14
1!
0"
0&
0(
0y
0*!
1U
1V
#1085000
1>
0?
0@
0A
11
12
1(
0)
0*
0+
0c
0r
1S
1T
#1095000
18
1:
1<
1=
1A
1/
10
1"
1$
1&
1'
1+
0o
1j
1Q
1R
#1105000
19
1;
0<
0>
0A
1,
1-
1.
01
03
04
05
06
1#
1%
0&
0(
0+
0|
0y
0d
0u
1!!
0*!
0r
1i
1P
0S
0U
0X
1N
1O
0V
0W
#1115000
0D
07
08
09
0:
0;
0=
0C
0,
0-
0.
0/
00
02
0B
0!
0"
0#
0$
0%
0'
0c
0o
0j
0i
0d
0u
0&!
0Y
0N
0O
0P
0Q
0R
0T
#1185000
1D
1A
1C
14
1B
1(
1+
0y
0&!
1Y
1V
#1195000
18
19
1:
1;
1=
1>
04
15
16
1"
1#
1$
1%
1'
0!!
0|
0y
0V
1W
1X
#1205000
09
0:
0;
0=
1?
13
14
0#
0$
0%
0'
1)
0*!
0y
1V
1U
#1215000
08
1;
1<
1=
0>
0A
11
12
0"
1%
1&
1'
0(
0+
0c
0r
1S
1T
#1225000
18
19
0;
0=
0?
1A
1/
10
1"
1#
0%
0'
0)
1+
1j
0o
1R
1Q
#1235000
0<
1=
1>
1?
1@
05
06
0&
1'
1(
1)
1*
1!!
0|
0W
0X
#1245000
1:
1<
0>
0@
0A
03
04
1$
1&
0(
0*
0+
0y
0*!
0U
0V
#1255000
0:
0=
1>
1@
01
02
0$
0'
1(
1*
0r
0c
0T
0S
#1265000
09
1=
0>
0?
0/
00
0#
1'
0(
0)
0o
0j
0Q
0R
#1275000
1:
0=
1>
1?
0@
1A
15
16
1$
0'
1(
1)
0*
1+
0!!
0|
1W
1X
#1285000
08
19
0:
0?
13
14
0"
1#
0$
0)
0*!
0y
1V
1U
#1295000
17
18
1;
1=
11
12
1!
1"
1%
1'
0r
0c
1T
1S
#1305000
07
08
09
0;
0<
1?
0A
1/
10
0!
0"
0#
0%
0&
1)
0+
1j
0o
1R
1Q
#1315000
17
18
1:
0=
0?
1A
05
06
1!
1"
1$
0'
0)
1+
0|
1!!
0X
0W
#1325000
07
1?
0A
03
04
0!
1)
0+
0*!
0y
0V
0U
#1335000
17
08
19
0:
1<
01
02
1!
0"
1#
0$
1&
0c
0r
0S
0T
#1345000
1:
1;
0<
0?
1A
0/
00
1$
1%
0&
0)
1+
0o
0j
0Q
0R
#1355000
07
18
09
0;
1=
0>
1@
15
16
0!
1"
0#
0%
1'
0(
1*
0!!
0|
1W
1X
#1365000
1;
1?
13
14
1%
1)
0*!
0y
1V
1U
#1375000
17
08
1<
0=
0?
0@
11
12
1!
0"
1&
0'
0)
0*
0c
0r
1S
1T
#1385000
0:
1=
1/
10
0$
1'
0o
1j
1Q
1R
#1395000
07
19
1:
0;
0=
1@
1.
00
02
03
04
0!
1#
1$
0%
0'
1*
0y
0*!
0c
0o
1i
1P
0R
0T
0U
0V
#1405000
0D
09
0:
0<
0@
0A
0C
0.
0/
01
05
06
0B
0#
0$
0&
0*
0+
0!!
0|
0r
0j
0i
0&!
0Y
0P
0Q
0S
0W
0X
#1475000
1D
1A
1C
14
1B
1(
1+
0y
0&!
1Y
1V
#1485000
19
1:
1<
1=
1>
1@
04
15
16
1#
1$
1&
1'
1*
0!!
0y
0|
1W
0V
1X
#1495000
0:
0<
0>
13
14
0$
0&
0(
0y
0*!
1U
1V
#1505000
17
09
1:
1?
0@
11
12
1!
0#
1$
1)
0*
0c
0r
1S
1T
#1515000
07
0:
1<
1>
1/
10
0!
0$
1&
1(
0o
1j
1Q
1R
#1525000
17
18
19
1;
0=
0>
0?
1@
05
06
1!
1"
1#
1%
0'
0(
0)
1*
1!!
0|
0W
0X
#1535000
08
09
1=
1>
0A
03
04
0"
0#
1'
1(
0+
0y
0*!
0U
0V
#1545000
07
18
19
0;
0=
0>
0@
1A
01
02
0!
1"
1#
0%
0'
0(
0*
1+
0r
0c
0T
0S
#1555000
09
1:
0<
1>
1@
0/
00
0#
1$
0&
1(
1*
0o
0j
0Q
0R
#1565000
17
0:
1;
1=
0A
15
16
1!
0$
1%
1'
0+
0|
0!!
1X
1W
#1575000
07
08
19
1:
0;
0=
1?
1A
13
14
0!
0"
1#
1$
0%
0'
1)
1+
0*!
0y
1V
1U
#1585000
17
09
0>
11
12
1!
0#
0(
0c
0r
1S
1T
#1595000
18
19
1;
0?
0@
1/
10
1"
1#
1%
0)
0*
1j
0o
1R
1Q
#1605000
09
0;
05
06
0#
0%
1!!
0|
0W
0X
#1615000
19
0:
1<
1?
0A
03
04
1#
0$
1&
1)
0+
0*!
0y
0V
0U
#1625000
08
09
1:
1;
1=
1>
0?
1A
01
02
0"
0#
1$
1%
1'
1(
0)
1+
0r
0c
0T
0S
#1635000
07
18
19
0:
0;
0<
0=
1?
1@
0A
0/
00
0!
1"
1#
0$
0%
0&
0'
1)
1*
0+
0o
0j
0Q
0R
#1645000
09
1:
1;
0?
15
16
0#
1$
1%
0)
0!!
0|
1W
1X
#1655000
17
0:
0;
1<
1=
0@
1A
13
14
1!
0$
0%
1&
1'
0*
1+
0y
0*!
1U
1V
#1665000
07
19
1:
0>
1?
1@
11
12
0!
1#
1$
0(
1)
1*
0c
0r
1S
1T
#1675000
08
1;
0<
0=
1>
0?
0A
1/
10
0"
1%
0&
0'
1(
0)
0+
1j
0o
1R
1Q
#1685000
17
09
1=
0@
1,
01
04
05
06
1!
0#
1'
0*
1!!
0y
0r
0|
0u
1N
0W
0S
0V
0X
#1695000
0D
07
0:
0;
0=
0>
0C
0,
0/
00
02
03
0B
0!
0$
0%
0'
0(
0*!
0c
0o
0j
0u
0&!
0Y
0N
0Q
0R
0T
0U
#1765000
1D
1A
1C
14
1B
1(
1+
0y
0&!
1Y
1V
#1775000
1<
1=
1>
1?
1@
04
15
16
1&
1'
1)
1*
0!!
0|
0y
0V
1W
1X
#1785000
19
1;
0>
0@
0A
13
14
1#
1%
0(
0*
0+
0y
0*!
1U
1V
#1795000
18
1:
0;
0<
1A
11
12
1"
1$
0%
0&
1+
0c
0r
1S
1T
#1805000
17
1;
0=
1@
1/
10
1!
1%
0'
1*
1j
0o
1R
1Q
#1815000
08
09
1>
0A
05
06
0"
0#
1(
0+
0|
1!!
0X
0W
#1825000
07
18
19
0;
0>
0?
03
04
0!
1"
1#
0%
0(
0)
0y
0*!
0U
0V
#1835000
17
08
09
0:
1<
1>
1?
0@
1A
01
02
1!
0"
0#
0$
1&
1(
1)
0*
1+
0c
0r
0S
0T
#1845000
19
1:
1=
0>
0?
0A
0/
00
1#
1$
1'
0(
0)
0+
0o
0j
0Q
0R
#1855000
07
09
1;
1A
15
16
0!
0#
1%
1+
0|
0!!
1X
1W
#1865000
19
0;
0<
1>
1?
1@
13
14
1#
0%
0&
1(
1)
1*
0y
0*!
1U
1V
#1875000
09
1<
0=
0@
11
12
0#
1&
0'
0*
0c
0r
1S
1T
#1885000
0:
0<
1=
0>
1/
10
0$
0&
1'
0(
0o
1j
1Q
1R
#1895000
19
0=
1>
0?
1@
05
06
1#
0'
1(
0)
1*
1!!
0|
0W
0X
#1905000
17
18
09
1;
1=
03
04
1!
1"
0#
1%
1'
0y
0*!
0U
0V
#1915000
19
1<
1?
0@
01
02
1#
1&
1)
0*
0c
0r
0S
0T
#1925000
07
08
0=
0>
1@
0/
00
0!
0"
0'
0(
1*
0o
0j
0Q
0R
#1935000
09
1:
1=
1>
0?
15
16
0#
1$
1'
1(
0)
0!!
0|
1W
1X
#1945000
0:
0;
0@
13
14
0$
0%
0*
0y
0*!
1U
1V
#1955000
17
1:
1;
0<
0=
0>
11
12
1!
1$
1%
0&
0'
0(
0c
0r
1S
1T
#1965000
07
19
0:
0;
1<
1=
1?
0A
1/
10
0!
1#
0$
0%
1&
1'
1)
0+
0o
1j
1Q
1R
#1975000
1:
0?
1.
00
03
04
05
06
1$
0)
1!!
0|
0*!
0o
1i
0y
0V
1P
0R
0U
0W
0X
#1985000
0D
09
0:
0<
0=
0C
0.
0/
01
02
0B
0#
0$
0&
0'
0c
0r
0j
0i
0&!
0Y
0P
0Q
0S
0T
#2055000
1D
1A
1C
14
1B
1(
1+
0y
0&!
1Y
1V
#2065000
1:
1<
1=
1>
1?
04
15
16
1$
1&
1'
1)
0!!
0|
0y
0V
1W
1X
#2075000
19
0:
1;
0>
0A
13
14
1#
0$
1%
0(
0+
0y
0*!
1U
1V
#2085000
17
18
1:
0<
1>
1@
11
12
1!
1"
1$
0&
1(
1*
0c
0r
1S
1T
#2095000
08
0:
0>
0?
0@
1A
1/
10
0"
0$
0(
0)
0*
1+
0o
1j
1Q
1R
#2105000
18
09
1<
0=
1>
1?
1@
0A
05
06
1"
0#
1&
0'
1(
1)
1*
0+
1!!
0|
0W
0X
#2115000
08
1:
0;
1=
0>
1A
03
04
0"
1$
0%
1'
0(
1+
0y
0*!
0U
0V
#2125000
07
19
0:
1;
0?
01
02
0!
1#
0$
1%
0)
0c
0r
0S
0T
#2135000
18
1:
0;
1>
0@
0A
0/
00
1"
1$
0%
1(
0*
0+
0o
0j
0Q
0R
#2145000
1;
0=
1?
1@
15
16
1%
0'
1)
1*
0!!
0|
1W
1X
#2155000
08
0:
0<
1=
0>
0?
13
14
0"
0$
0&
1'
0(
0)
0y
0*!
1U
1V
