stratus/simple_fir/bdw_work/sims/BASIC_V/verilog.vcd
$date
    Sep  7, 2022  16:44:10
$end
$version
    TOOL:	ncsim(64)	15.20-s038
$end
$timescale
    1 ps
$end

$scope module top $end

$scope module fir0 $end
$var reg       1 !    clk  $end
$var reg       1 "    rst  $end
$var reg       8 #    coeffs_table_0 [7:0] $end
$var reg       8 $    coeffs_table_1 [7:0] $end
$var reg       8 %    coeffs_table_2 [7:0] $end
$var reg       8 &    coeffs_table_3 [7:0] $end
$var reg       8 '    coeffs_table_4 [7:0] $end
$var reg       8 (    coeffs_table_5 [7:0] $end
$var reg       8 )    coeffs_table_6 [7:0] $end
$var reg       8 *    coeffs_table_7 [7:0] $end
$var wire      1 +    din_busy  $end
$var reg       1 ,    din_vld  $end
$var reg       8 -    din_data [7:0] $end
$var reg       1 .    dout_busy  $end
$var wire      1 /    dout_vld  $end
$var wire     11 0    dout_data [10:0] $end

$scope module fir0 $end
$var wire      1 1    clk  $end
$var wire      1 2    rst  $end
$var wire      8 3    coeffs_table_0 [7:0] $end
$var wire      8 4    coeffs_table_1 [7:0] $end
$var wire      8 5    coeffs_table_2 [7:0] $end
$var wire      8 6    coeffs_table_3 [7:0] $end
$var wire      8 7    coeffs_table_4 [7:0] $end
$var wire      8 8    coeffs_table_5 [7:0] $end
$var wire      8 9    coeffs_table_6 [7:0] $end
$var wire      8 :    coeffs_table_7 [7:0] $end
$var wire      1 ;    din_vld  $end
$var wire      8 <    din_data [7:0] $end
$var wire      1 =    dout_busy  $end
$var wire      1 +    din_busy  $end
$var wire      1 /    dout_vld  $end
$var reg      11 >    dout_data [10:0] $end
$var reg       1 ?    dout_m_req_m_prev_trig_req  $end
$var reg       1 @    dout_m_unacked_req  $end
$var reg       1 A    din_m_unvalidated_req  $end
$var reg       4 B    global_state_next [3:0] $end
$var reg       1 C    gs_ctrl4  $end
$var reg       1 D    gs_ctrl3  $end
$var reg       1 E    gs_ctrl2  $end
$var reg       2 F    gs_ctrl1 [1:0] $end
$var reg       2 G    gs_ctrl0 [1:0] $end
$var reg       1 H    dout_m_req_m_trig_req  $end
$var reg       1 I    din_m_busy_req_0  $end
$var reg       4 J    sreg_1 [3:0] $end
$var reg       4 K    global_state [3:0] $end
$var reg       1 L    stall0  $end
$var wire      1 M    fir_N_Muxb_1_2_11_4_1_out1  $end
$var wire      1 N    fir_gen_busy_r_1_2_in1  $end
$var wire      1 O    fir_gen_busy_r_1_2_in2  $end
$var wire      1 P    fir_gen_busy_r_1_2_in3  $end
$var wire      3 Q    fir_gen_busy_r_1_2_out1 [2:0] $end
$var wire      1 R    fir_Xor_1Ux1U_1U_1_4_in1  $end
$var wire      1 S    fir_Or_1Ux1U_1U_4_5_in2  $end
$var wire      1 T    fir_Xor_1Ux1U_1U_1_4_out1  $end
$var wire      1 U    fir_Or_1Ux1U_1U_4_5_out1  $end
$var wire      1 V    fir_And_1Ux1U_1U_1_6_in2  $end
$var wire      1 W    fir_And_1Ux1U_1U_1_6_in1  $end
$var wire      1 X    fir_And_1Ux1U_1U_1_6_out1  $end
$var wire      1 Y    fir_Xor_1Ux1U_1U_1_4_in2  $end
$var wire      1 Z    fir_Not_1U_1U_1_7_out1  $end
$var wire     11 [    fir_Add_11Ux11U_11U_4_14_out1 [10:0] $end
$var reg       3 \    fir_Add_3U_4_4_8_in1 [2:0] $end
$var wire      3 ]    fir_Add_3U_4_4_8_out1 [2:0] $end
$var wire      3 ^    fir_Add_3U_4_4_9_out1 [2:0] $end
$var reg       3 _    fir_Add_3Ux1U_4U_4_11_in2 [2:0] $end
$var wire      1 `    fir_Add_3Ux1U_4U_4_11_in1  $end
$var wire      4 a    fir_Add_3Ux1U_4U_4_11_out1 [3:0] $end
$var wire      3 b    fir_Add_3U_4_4_9_in1 [2:0] $end
$var wire      1 c    fir_LessThan_1U_10_4_10_out1  $end
$var wire     11 d    fir_Mul_8Ux8U_11U_4_13_out1 [10:0] $end
$var reg       3 e    s_reg_19 [2:0] $end
$var wire      8 f    fir_N_Mux_8_8_12_4_12_out1 [7:0] $end
$var reg       8 g    shift_reg_DIN [7:0] $end
$var reg       1 h    shift_reg_CE  $end
$var reg       1 i    shift_reg_RW  $end
$var reg       3 j    shift_reg_in1 [2:0] $end
$var wire      8 k    shift_reg_out1 [7:0] $end

$scope module shift_reg $end
$var wire      8 l    DIN [7:0] $end
$var wire      1 m    CE  $end
$var wire      1 n    RW  $end
$var wire      3 o    in1 [2:0] $end
$var wire      1 1    clk  $end
$var reg       8 p    out1 [7:0] $end
$upscope $end


$scope module fir_N_Mux_8_8_12_4_12 $end
$var wire      8 :    in9 [7:0] $end
$var wire      8 9    in8 [7:0] $end
$var wire      8 8    in7 [7:0] $end
$var wire      8 7    in6 [7:0] $end
$var wire      8 6    in5 [7:0] $end
$var wire      8 5    in4 [7:0] $end
$var wire      8 4    in3 [7:0] $end
$var wire      8 3    in2 [7:0] $end
$var wire      3 q    ctrl1 [2:0] $end
$var wire      8 f    out1 [7:0] $end
$var wire      8 r    asc001 [7:0] $end
$var reg       8 s    asc001_tmp_0 [7:0] $end
$upscope $end


$scope module fir_Mul_8Ux8U_11U_4_13 $end
$var wire      8 f    in2 [7:0] $end
$var wire      8 k    in1 [7:0] $end
$var wire     11 d    out1 [10:0] $end
$var wire     11 t    asc001 [10:0] $end
$upscope $end


$scope module fir_LessThan_1U_10_4_10 $end
$var wire      3 b    in1 [2:0] $end
$var wire      1 c    out1  $end
$var wire      1 u    asc001  $end
$upscope $end


$scope module fir_Add_3Ux1U_4U_4_11 $end
$var wire      3 v    in2 [2:0] $end
$var wire      1 `    in1  $end
$var wire      4 a    out1 [3:0] $end
$var wire      4 w    asc001 [3:0] $end
$upscope $end


$scope module fir_Add_3U_4_4_9 $end
$var wire      3 b    in1 [2:0] $end
$var wire      3 ^    out1 [2:0] $end
$var wire      3 x    asc001 [2:0] $end
$upscope $end


$scope module fir_Add_3U_4_4_8 $end
$var wire      3 y    in1 [2:0] $end
$var wire      3 ]    out1 [2:0] $end
$var wire      3 z    asc001 [2:0] $end
$upscope $end


$scope module fir_Add_11Ux11U_11U_4_14 $end
$var wire     11 d    in2 [10:0] $end
$var wire     11 {    in1 [10:0] $end
$var wire     11 [    out1 [10:0] $end
$var wire     11 |    asc001 [10:0] $end
$upscope $end


$scope module fir_Not_1U_1U_1_7 $end
$var wire      1 Y    in1  $end
$var wire      1 Z    out1  $end
$var wire      1 }    asc001  $end
$upscope $end


$scope module fir_And_1Ux1U_1U_1_6 $end
$var wire      1 V    in2  $end
$var wire      1 W    in1  $end
$var wire      1 X    out1  $end
$var wire      1 ~    asc001  $end
$upscope $end


$scope module fir_Or_1Ux1U_1U_4_5 $end
$var wire      1 S    in2  $end
$var wire      1 T    in1  $end
$var wire      1 U    out1  $end
$var wire      1 !!   asc001  $end
$upscope $end


$scope module fir_Xor_1Ux1U_1U_1_4 $end
$var wire      1 Y    in2  $end
$var wire      1 R    in1  $end
$var wire      1 T    out1  $end
$var wire      1 "!   asc001  $end
$upscope $end


$scope module fir_gen_busy_r_1_2 $end
$var wire      1 N    in1  $end
$var wire      1 O    in2  $end
$var wire      1 P    in3  $end
$var wire      3 Q    out1 [2:0] $end
$var wire      1 #!   asc003  $end
$var wire      1 $!   asc004  $end
$var wire      1 %!   asc006  $end
$var wire      1 &!   asc008  $end
$var wire      1 '!   asc010  $end
$var wire      3 (!   asc011 [2:0] $end
$upscope $end


$scope module fir_N_Muxb_1_2_11_4_1 $end
$var wire      1 N    in3  $end
$var wire      1 P    in2  $end
$var wire      1 O    ctrl1  $end
$var wire      1 M    out1  $end
$var wire      1 )!   asc001  $end
$var reg       1 *!   asc001_tmp_0 [0:0] $end
$upscope $end

$upscope $end

$upscope $end

$upscope $end

$enddefinitions $end
$dumpvars
1!
0"
b0 #
b0 $
b0 %
b0 &
b0 '
b0 (
b0 )
b0 *
1+
0,
b0 -
1.
0/
bx 0
11
02
b0 3
b0 4
b0 5
b0 6
b0 7
b0 8
b0 9
b0 :
0;
b0 <
1=
bx >
0?
0@
1A
b1 B
0C
0D
1E
b1 F
b0 G
0H
1I
bx J
b0 K
0L
1M
0N
1O
1P
b101 Q
0R
0S
0T
0U
1V
0W
0X
0Y
1Z
bx [
b0 \
b1 ]
bx ^
b0 _
1`
b1 a
bx b
xc
b0 d
bx e
b0 f
b0 g
1h
1i
b0 j
b0 k
b0 l
1m
1n
b0 o
b0 p
bx q
b0 r
b0 s
b0 t
xu
b0 v
b1 w
bx x
b0 y
b1 z
bx {
bx |
1}
0~
0!!
0"!
1#!
1$!
0%!
0&!
1'!
b101 (!
1)!
1*!
$end
#3000
0!
01
#6000
1!
11
#9000
0!
01
#12000
1!
11
1"
12
#15000
0!
01
#18000
1!
11
b1 K
b1 j
b10 B
b1 o
1,
b1 #
b10 $
b11 %
b100 &
b100 '
b11 (
b10 )
b1 *
0.
b101 -
b101 <
0=
b1 :
b10 9
b11 8
b100 7
b100 6
b11 5
b10 4
b1 3
1;
1N
0V
b1 s
b1 r
b1 f
#21000
0!
01
#24000
1!
11
b10 K
b10 j
b11 B
b10 o
#27000
0!
01
#30000
1!
11
b11 K
b11 j
b100 B
b11 o
#33000
0!
01
#36000
1!
11
b100 K
b100 j
b101 B
b100 o
#39000
0!
01
#42000
1!
11
b101 K
b101 j
b110 B
b101 o
#45000
0!
01
#48000
1!
11
b110 K
b110 j
b111 B
b110 o
#51000
0!
01
#54000
1!
11
b111 K
b111 j
b1000 B
b111 o
#57000
0!
01
#60000
1!
11
b1000 K
0E
b1 j
b1001 B
0i
0n
b1 o
#63000
0!
01
#66000
1!
11
b1001 K
b1 G
1E
b0 e
b0 j
b1010 B
1i
1n
b0 o
b0 q
b0 b
1u
b1 x
1c
b1 ^
#69000
0!
01
#72000
1!
11
b1010 K
b0 G
b10 F
0E
1D
b1 e
b1 j
b1001 B
0i
b1 \
b1 y
0n
b1 o
b1 q
b1 b
b10 s
b10 x
b10 r
b10 z
b10 ]
b10 f
b10 ^
b10 j
b10 o
#75000
0!
01
#78000
1!
11
b1001 K
b1 G
b1 F
1E
0D
b1 j
b1010 B
1i
b0 \
b0 y
1n
b1 o
b1 z
b1 ]
#81000
0!
01
#84000
1!
11
b1010 K
b0 G
b10 F
0E
1D
b10 e
b1001 B
0i
b10 \
b10 y
0n
b10 q
b10 b
b11 s
b11 x
b11 r
b11 z
b11 ]
b11 f
b11 ^
b11 j
b11 o
#87000
0!
01
#90000
1!
11
b1001 K
b1 G
b1 F
1E
0D
b10 j
b1010 B
1i
b0 \
b0 y
1n
b10 o
b1 z
b1 ]
#93000
0!
01
#96000
1!
11
b1010 K
b0 G
b10 F
0E
1D
b11 e
b1 j
b1001 B
0i
b11 \
b11 y
0n
b1 o
b11 q
b11 b
b100 s
b100 x
b100 r
b100 z
b100 ]
b100 f
b100 ^
b100 j
b100 o
#99000
0!
01
#102000
1!
11
b1001 K
b1 G
b1 F
1E
0D
b11 j
b1010 B
1i
b0 \
b0 y
1n
b11 o
b1 z
b1 ]
#105000
0!
01
#108000
1!
11
b1010 K
b0 G
b10 F
0E
1D
b100 e
b1 j
b1001 B
0i
b100 \
b100 y
0n
b1 o
b100 q
b100 b
b101 x
b101 z
b101 ]
b101 ^
b101 j
b101 o
#111000
0!
01
#114000
1!
11
b1001 K
b1 G
b1 F
1E
0D
b100 j
b1010 B
1i
b0 \
b0 y
1n
b100 o
b1 z
b1 ]
#117000
0!
01
#120000
1!
11
b1010 K
b0 G
b10 F
0E
1D
b101 e
b1 j
b1001 B
0i
b101 \
b101 y
0n
b1 o
b101 q
b101 b
b11 s
b110 x
b11 r
b110 z
b110 ]
b11 f
b110 ^
b110 j
b110 o
#123000
0!
01
#126000
1!
11
b1001 K
b1 G
b1 F
1E
0D
b101 j
b1010 B
1i
b0 \
b0 y
1n
b101 o
b1 z
b1 ]
#129000
0!
01
#132000
1!
11
b1010 K
b0 G
b10 F
0E
1D
b110 e
b1 j
b1001 B
0i
b110 \
b110 y
0n
b1 o
b110 q
b110 b
b10 s
b111 x
b10 r
b111 z
b111 ]
b10 f
b111 ^
b111 j
b111 o
#135000
0!
01
#138000
1!
11
b1001 K
b1 G
b1 F
1E
0D
b110 j
b1010 B
1i
b0 \
b0 y
1n
b110 o
b1 z
b1 ]
#141000
0!
01
#144000
1!
11
b1010 K
b0 G
b10 F
0E
1D
b111 e
b1 j
b1001 B
0i
b111 \
b111 y
0n
b1 o
b111 q
b111 b
b1 s
0u
b0 x
b1 r
b0 z
0c
b1011 B
0h
0m
b0 ]
b1 f
b0 ^
b0 j
b0 o
#147000
0!
01
#150000
1!
11
b1011 K
b10 G
b1 F
1E
0D
0I
1L
b111 j
b1100 B
b101 g
b0 \
b0 y
b101 l
b111 o
0O
0#!
1&!
b10 (!
1%!
0'!
b10 Q
b1 z
0L
1h
1i
1n
1m
b1 ]
0+
#153000
0!
01
#156000
1!
11
b1100 K
b0 G
0E
1I
b0 j
b1101 B
b0 g
0i
0n
b0 l
b0 o
1O
1#!
0&!
b101 (!
0%!
1'!
b101 Q
1+
#159000
0!
01
#162000
1!
11
b1101 K
b0 F
b0 e
b1 J
b0 >
b1110 B
0h
0m
b0 {
b0 q
b0 0
b0 b
1u
b1 x
b0 |
1c
b0 [
b1 ^
#165000
0!
01
#168000
1!
11
b1110 K
b1 F
1C
b1 j
b1101 B
1h
b1 _
b1 v
1m
b1 o
b10 w
b10 a
#171000
0!
01
#174000
1!
11
b1101 K
b0 F
0C
b1 e
b10 J
b0 j
b1110 B
0h
b0 _
b0 v
0m
b0 o
b1 q
b1 b
b10 s
b10 x
b10 r
b1 w
b1 a
b10 f
b10 ^
#177000
0!
01
#180000
1!
11
b1110 K
b1 F
1C
b10 j
b1101 B
1h
b10 _
b10 v
1m
b10 o
b11 w
b11 a
#183000
0!
01
#186000
1!
11
b1101 K
b0 F
0C
b10 e
b11 J
b0 j
b1110 B
0h
b0 _
b0 v
0m
b0 o
b10 q
b10 b
b11 s
b11 x
b11 r
b1 w
b1 a
b11 f
b11 ^
#189000
0!
01
#192000
1!
11
b1110 K
b1 F
1C
b11 j
b1101 B
1h
b11 _
b11 v
1m
b11 o
b100 w
b100 a
#195000
0!
01
#198000
1!
11
b1101 K
b0 F
0C
b11 e
b100 J
b0 j
b1110 B
0h
b0 _
b0 v
0m
b0 o
b11 q
b11 b
b100 s
b100 x
b100 r
b1 w
b1 a
b100 f
b100 ^
#201000
0!
01
#204000
1!
11
b1110 K
b1 F
1C
b100 j
b1101 B
1h
b100 _
b100 v
1m
b100 o
b101 w
b101 a
#207000
0!
01
#210000
1!
11
b1101 K
b0 F
0C
b100 e
b101 J
b0 j
b1110 B
0h
b0 _
b0 v
0m
b0 o
b100 q
b100 b
b101 x
b1 w
b1 a
b101 ^
#213000
0!
01
#216000
1!
11
b1110 K
b1 F
1C
b101 j
b1101 B
1h
b101 _
b101 v
1m
b101 o
b110 w
b110 a
#219000
0!
01
#222000
1!
11
b1101 K
b0 F
0C
b101 e
b110 J
b0 j
b1110 B
0h
b0 _
b0 v
0m
b0 o
b101 q
b101 b
b11 s
b110 x
b11 r
b1 w
b1 a
b11 f
b110 ^
#225000
0!
01
#228000
1!
11
b1110 K
b1 F
1C
b110 j
b1101 B
1h
b110 _
b110 v
1m
b110 o
b111 w
b111 a
#231000
0!
01
#234000
1!
11
b1101 K
b0 F
0C
b110 e
b111 J
b0 j
b1110 B
0h
b0 _
b0 v
0m
b0 o
b110 q
b110 b
b10 s
b111 x
b10 r
b1 w
b1 a
b10 f
b111 ^
#237000
0!
01
#240000
1!
11
b1110 K
b1 F
1C
b111 j
b1101 B
1h
b111 _
b111 v
1m
b111 o
b1000 w
b1000 a
#243000
0!
01
#246000
1!
11
b1101 K
b0 F
0C
b111 e
b1000 J
b101 p
b0 j
b1111 B
0h
b0 _
b0 v
0m
b0 o
b111 q
b101 k
b111 b
b1 s
0u
b0 x
b1010 t
b1 r
b1 w
0c
b1 a
b1 f
b1010 d
b0 ^
b1010 |
b101 t
b101 d
b1010 [
b101 |
b101 [
#249000
0!
01
#252000
1!
11
b1111 K
b1 F
1H
b0 p
b1 j
b1001 B
1h
1m
b1 o
b0 k
1Y
1"!
0}
0Z
1T
1!!
1U
1/
1W
b0 t
b0 d
b0 |
b0 [
#255000
0!
01
#258000
1!
11
1?
b1001 K
b1 G
1E
b0 e
b0 j
b1010 B
1i
1n
b0 o
b0 q
b0 b
1R
0"!
0T
0!!
0U
0/
0W
1u
b1 x
1c
b1 ^
#261000
0!
01
#264000
1!
11
b1010 K
b0 G
b10 F
0E
1D
b1 e
b1 j
b1001 B
0i
b1 \
b1 y
0n
b1 o
b1 q
b1 b
b10 s
b10 x
b10 r
b10 z
b10 ]
b10 f
b10 ^
b10 j
b10 o
#267000
0!
01
#270000
1!
11
b1001 K
b1 G
b1 F
1E
0D
b1 j
b1010 B
1i
b0 \
b0 y
1n
b1 o
b1 z
b1 ]
#273000
0!
01
#276000
1!
11
b1010 K
b0 G
b10 F
0E
1D
b10 e
b1001 B
0i
b10 \
b10 y
0n
b10 q
b10 b
b11 s
b11 x
b11 r
b11 z
b11 ]
b11 f
b11 ^
b11 j
b11 o
#279000
0!
01
#282000
1!
11
b1001 K
b1 G
b1 F
1E
0D
b10 j
b1010 B
1i
b0 \
b0 y
1n
b10 o
b1 z
b1 ]
#285000
0!
01
#288000
1!
11
b1010 K
b0 G
b10 F
0E
1D
b11 e
b1 j
b1001 B
0i
b11 \
b11 y
0n
b1 o
b11 q
b11 b
b100 s
b100 x
b100 r
b100 z
b100 ]
b100 f
b100 ^
b100 j
b100 o
#291000
0!
01
#294000
1!
11
b1001 K
b1 G
b1 F
1E
0D
b11 j
b1010 B
1i
b0 \
b0 y
1n
b11 o
b1 z
b1 ]
#297000
0!
01
#300000
1!
11
b1010 K
b0 G
b10 F
0E
1D
b100 e
b1 j
b1001 B
0i
b100 \
b100 y
0n
b1 o
b100 q
b100 b
b101 x
b101 z
b101 ]
b101 ^
b101 j
b101 o
#303000
0!
01
#306000
1!
11
b1001 K
b1 G
b1 F
1E
0D
b100 j
b1010 B
1i
b0 \
b0 y
1n
b100 o
b1 z
b1 ]
#309000
0!
01
#312000
1!
11
b1010 K
b0 G
b10 F
0E
1D
b101 e
b1 j
b1001 B
0i
b101 \
b101 y
0n
b1 o
b101 q
b101 b
b11 s
b110 x
b11 r
b110 z
b110 ]
b11 f
b110 ^
b110 j
b110 o
#315000
0!
01
#318000
1!
11
b1001 K
b1 G
b1 F
1E
0D
b101 j
b1010 B
1i
b0 \
b0 y
1n
b101 o
b1 z
b1 ]
#321000
0!
01
#324000
1!
11
b1010 K
b0 G
b10 F
0E
1D
b110 e
b1 j
b1001 B
0i
b110 \
b110 y
0n
b1 o
b110 q
b110 b
b10 s
b111 x
b10 r
b111 z
b111 ]
b10 f
b111 ^
b111 j
b111 o
#327000
0!
01
#330000
1!
11
b1001 K
b1 G
b1 F
1E
0D
b101 p
b110 j
b1010 B
1i
b0 \
b0 y
1n
b110 o
b101 k
b101 g
b101 l
b1010 t
b1 z
b1 ]
b1010 d
b1010 |
b1010 [
#333000
0!
01
#336000
1!
11
b1010 K
b0 G
b10 F
0E
1D
b111 e
b1 j
b1001 B
b0 g
0i
b111 \
b111 y
0n
b0 l
b1 o
b111 q
b111 b
b1 s
0u
b0 x
b1 r
b0 z
0c
b1011 B
0h
0m
b0 ]
b1 f
b0 ^
b0 j
b0 o
b101 t
b101 d
b101 |
b101 [
#339000
0!
01
#342000
1!
11
b1011 K
b10 G
b1 F
1E
0D
0I
b0 p
1L
b111 j
b1100 B
b101 g
b0 \
b0 y
b101 l
b111 o
b0 k
0O
0#!
1&!
b10 (!
1%!
0'!
b10 Q
b0 t
b1 z
0L
1h
1i
1n
1m
b1 ]
b0 d
0+
b0 |
b0 [
#345000
0!
01
#348000
1!
11
b1100 K
b0 G
0E
1I
b0 j
b1101 B
b0 g
0i
0n
b0 l
b0 o
1O
1#!
0&!
b101 (!
0%!
1'!
b101 Q
1+
#351000
0!
01
#354000
1!
11
b1101 K
b0 F
b0 e
b1 J
b1110 B
0h
0m
b0 q
b0 b
1u
b1 x
1c
b1 ^
#357000
0!
01
#360000
1!
11
b1110 K
b1 F
1C
b1 j
b1101 B
1h
b1 _
b1 v
1m
b1 o
b10 w
b10 a
#363000
0!
01
#366000
1!
11
b1101 K
b0 F
0C
b1 e
b10 J
b0 j
b1110 B
0h
b0 _
b0 v
0m
b0 o
b1 q
b1 b
b10 s
b10 x
b10 r
b1 w
b1 a
b10 f
b10 ^
#369000
0!
01
#372000
1!
11
b1110 K
b1 F
1C
b10 j
b1101 B
1h
b10 _
b10 v
1m
b10 o
b11 w
b11 a
#375000
0!
01
#378000
1!
11
b1101 K
b0 F
0C
b10 e
b11 J
b0 j
b1110 B
0h
b0 _
b0 v
0m
b0 o
b10 q
b10 b
b11 s
b11 x
b11 r
b1 w
b1 a
b11 f
b11 ^
#381000
0!
01
#384000
1!
11
b1110 K
b1 F
1C
b11 j
b1101 B
1h
b11 _
b11 v
1m
b11 o
b100 w
b100 a
#387000
0!
01
#390000
1!
11
b1101 K
b0 F
0C
b11 e
b100 J
b0 j
b1110 B
0h
b0 _
b0 v
0m
b0 o
b11 q
b11 b
b100 s
b100 x
b100 r
b1 w
b1 a
b100 f
b100 ^
#393000
0!
01
#396000
1!
11
b1110 K
b1 F
1C
b100 j
b1101 B
1h
b100 _
b100 v
1m
b100 o
b101 w
b101 a
#399000
0!
01
#402000
1!
11
b1101 K
b0 F
0C
b100 e
b101 J
b0 j
b1110 B
0h
b0 _
b0 v
0m
b0 o
b100 q
b100 b
b101 x
b1 w
b1 a
b101 ^
#405000
0!
01
#408000
1!
11
b1110 K
b1 F
1C
b101 j
b1101 B
1h
b101 _
b101 v
1m
b101 o
b110 w
b110 a
#411000
0!
01
#414000
1!
11
b1101 K
b0 F
0C
b101 e
b110 J
b0 j
b1110 B
0h
b0 _
b0 v
0m
b0 o
b101 q
b101 b
b11 s
b110 x
b11 r
b1 w
b1 a
b11 f
b110 ^
#417000
0!
01
#420000
1!
11
b1110 K
b1 F
1C
b110 j
b1101 B
1h
b110 _
b110 v
1m
b110 o
b111 w
b111 a
#423000
0!
01
#426000
1!
11
b1101 K
b0 F
0C
b110 e
b111 J
b101 p
b0 j
b1110 B
0h
b0 _
b0 v
0m
b0 o
b110 q
b101 k
b110 b
b10 s
b111 x
b1111 t
b10 r
b1 w
b1 a
b10 f
b1111 d
b111 ^
b1111 |
b1010 t
b1010 d
b1111 [
b1010 |
b1010 [
#429000
0!
01
#432000
1!
11
b1110 K
b1 F
1C
b1010 >
b0 p
b111 j
b1101 B
1h
b111 _
b111 v
1m
b111 o
b1010 {
b0 k
b1010 0
b0 t
b10100 |
b1000 w
b1000 a
b10100 [
b0 d
b1010 |
b1010 [
#435000
0!
01
#438000
1!
11
b1101 K
b0 F
0C
b111 e
b1000 J
b101 p
b0 j
b1111 B
0h
b0 _
b0 v
0m
b0 o
b111 q
b101 k
b111 b
b1 s
0u
b0 x
b1010 t
b1 r
b1 w
0c
b1 a
b1 f
b1010 d
b0 ^
b10100 |
b101 t
b101 d
b10100 [
b1111 |
b1111 [
#441000
0!
01
#444000
1!
11
b1111 K
b1 F
b0 >
0H
b0 p
b1 j
b1001 B
1h
1m
b1 o
b0 {
b0 k
0Y
b0 0
1"!
1}
1Z
1T
1!!
1U
1/
1W
b0 t
b101 |
b101 [
b0 d
b0 |
b0 [
#447000
0!
01
#450000
1!
11
0?
b1001 K
b1 G
1E
b0 e
b0 j
b1010 B
1i
1n
b0 o
b0 q
b0 b
0R
0"!
0T
0!!
0U
0/
0W
1u
b1 x
1c
b1 ^
#453000
0!
01
#456000
1!
11
b1010 K
b0 G
b10 F
0E
1D
b1 e
b1 j
b1001 B
0i
b1 \
b1 y
0n
b1 o
b1 q
b1 b
b10 s
b10 x
b10 r
b10 z
b10 ]
b10 f
b10 ^
b10 j
b10 o
#459000
0!
01
#462000
1!
11
b1001 K
b1 G
b1 F
1E
0D
b1 j
b1010 B
1i
b0 \
b0 y
1n
b1 o
b1 z
b1 ]
#465000
0!
01
#468000
1!
11
b1010 K
b0 G
b10 F
0E
1D
b10 e
b1001 B
0i
b10 \
b10 y
0n
b10 q
b10 b
b11 s
b11 x
b11 r
b11 z
b11 ]
b11 f
b11 ^
b11 j
b11 o
#471000
0!
01
#474000
1!
11
b1001 K
b1 G
b1 F
1E
0D
b10 j
b1010 B
1i
b0 \
b0 y
1n
b10 o
b1 z
b1 ]
#477000
0!
01
#480000
1!
11
b1010 K
b0 G
b10 F
0E
1D
b11 e
b1 j
b1001 B
0i
b11 \
b11 y
0n
b1 o
b11 q
b11 b
b100 s
b100 x
b100 r
b100 z
b100 ]
b100 f
b100 ^
b100 j
b100 o
#483000
0!
01
#486000
1!
11
b1001 K
b1 G
b1 F
1E
0D
b11 j
b1010 B
1i
b0 \
b0 y
1n
b11 o
b1 z
b1 ]
#489000
0!
01
#492000
1!
11
b1010 K
b0 G
b10 F
0E
1D
b100 e
b1 j
b1001 B
0i
b100 \
b100 y
0n
b1 o
b100 q
b100 b
b101 x
b101 z
b101 ]
b101 ^
b101 j
b101 o
#495000
0!
01
#498000
1!
11
b1001 K
b1 G
b1 F
1E
0D
b100 j
b1010 B
1i
b0 \
b0 y
1n
b100 o
b1 z
b1 ]
#501000
0!
01
#504000
1!
11
b1010 K
b0 G
b10 F
0E
1D
b101 e
b1 j
b1001 B
0i
b101 \
b101 y
0n
b1 o
b101 q
b101 b
b11 s
b110 x
b11 r
b110 z
b110 ]
b11 f
b110 ^
b110 j
b110 o
#507000
0!
01
#510000
1!
11
b1001 K
b1 G
b1 F
1E
0D
b101 p
b101 j
b1010 B
1i
b0 \
b0 y
1n
b101 o
b101 k
b101 g
b101 l
b1111 t
b1 z
b1 ]
b1111 d
b1111 |
b1111 [
#513000
0!
01
#516000
1!
11
b1010 K
b0 G
b10 F
0E
1D
b110 e
b1 j
b1001 B
b0 g
0i
b110 \
b110 y
0n
b0 l
b1 o
b110 q
b110 b
b10 s
b111 x
b10 r
b111 z
b111 ]
b10 f
b111 ^
b111 j
b111 o
b1010 t
b1010 d
b1010 |
b1010 [
#519000
0!
01
#522000
1!
11
b1001 K
b1 G
b1 F
1E
0D
b110 j
b1010 B
b101 g
1i
b0 \
b0 y
1n
b101 l
b110 o
b1 z
b1 ]
#525000
0!
01
#528000
1!
11
b1010 K
b0 G
b10 F
0E
1D
b111 e
b1 j
b1001 B
b0 g
0i
b111 \
b111 y
0n
b0 l
b1 o
b111 q
b111 b
b1 s
0u
b0 x
b1 r
b0 z
0c
b1011 B
0h
0m
b0 ]
b1 f
b0 ^
b0 j
b0 o
b101 t
b101 d
b101 |
b101 [
#531000
0!
01
#534000
1!
11
b1011 K
b10 G
b1 F
1E
0D
0I
b0 p
1L
b111 j
b1100 B
b101 g
b0 \
b0 y
b101 l
b111 o
b0 k
0O
0#!
1&!
b10 (!
1%!
0'!
b10 Q
b0 t
b1 z
0L
1h
1i
1n
1m
b1 ]
b0 d
0+
b0 |
b0 [
#537000
0!
01
#540000
1!
11
b1100 K
b0 G
0E
1I
b0 j
b1101 B
b0 g
0i
0n
b0 l
b0 o
1O
1#!
0&!
b101 (!
0%!
1'!
b101 Q
1+
#543000
0!
01
#546000
1!
11
b1101 K
b0 F
b0 e
b1 J
b1110 B
0h
0m
b0 q
b0 b
1u
b1 x
1c
b1 ^
#549000
0!
01
#552000
1!
11
b1110 K
b1 F
1C
b1 j
b1101 B
1h
b1 _
b1 v
1m
b1 o
b10 w
b10 a
#555000
0!
01
#558000
1!
11
b1101 K
b0 F
0C
b1 e
b10 J
b0 j
b1110 B
0h
b0 _
b0 v
0m
b0 o
b1 q
b1 b
b10 s
b10 x
b10 r
b1 w
b1 a
b10 f
b10 ^
#561000
0!
01
#564000
1!
11
b1110 K
b1 F
1C
b10 j
b1101 B
1h
b10 _
b10 v
1m
b10 o
b11 w
b11 a
#567000
0!
01
#570000
1!
11
b1101 K
b0 F
0C
b10 e
b11 J
b0 j
b1110 B
0h
b0 _
b0 v
0m
b0 o
b10 q
b10 b
b11 s
b11 x
b11 r
b1 w
b1 a
b11 f
b11 ^
#573000
0!
01
#576000
1!
11
b1110 K
b1 F
1C
b11 j
b1101 B
1h
b11 _
b11 v
1m
b11 o
b100 w
b100 a
#579000
0!
01
#582000
1!
11
b1101 K
b0 F
0C
b11 e
b100 J
b0 j
b1110 B
0h
b0 _
b0 v
0m
b0 o
b11 q
b11 b
b100 s
b100 x
b100 r
b1 w
b1 a
b100 f
b100 ^
#585000
0!
01
#588000
1!
11
b1110 K
b1 F
1C
b100 j
b1101 B
1h
b100 _
b100 v
1m
b100 o
b101 w
b101 a
#591000
0!
01
#594000
1!
11
b1101 K
b0 F
0C
b100 e
b101 J
b0 j
b1110 B
0h
b0 _
b0 v
0m
b0 o
b100 q
b100 b
b101 x
b1 w
b1 a
b101 ^
#597000
0!
01
#600000
1!
11
b1110 K
b1 F
1C
b101 j
b1101 B
1h
b101 _
b101 v
1m
b101 o
b110 w
b110 a
#603000
0!
01
#606000
1!
11
b1101 K
b0 F
0C
b101 e
b110 J
b101 p
b0 j
b1110 B
0h
b0 _
b0 v
0m
b0 o
b101 q
b101 k
b101 b
b11 s
b110 x
b10100 t
b11 r
b1 w
b1 a
b11 f
b10100 d
b110 ^
b10100 |
b1111 t
b1111 d
b10100 [
b1111 |
b1111 [
#609000
0!
01
